<?xml version="1.0" encoding="UTF-8" standalone="no"?>
<!-- Created with Inkscape (http://www.inkscape.org/) -->

<svg
   xmlns:dc="http://purl.org/dc/elements/1.1/"
   xmlns:cc="http://creativecommons.org/ns#"
   xmlns:rdf="http://www.w3.org/1999/02/22-rdf-syntax-ns#"
   xmlns:svg="http://www.w3.org/2000/svg"
   xmlns="http://www.w3.org/2000/svg"
   xmlns:sodipodi="http://sodipodi.sourceforge.net/DTD/sodipodi-0.dtd"
   xmlns:inkscape="http://www.inkscape.org/namespaces/inkscape"
   version="1.1"
   width="48"
   height="48"
   id="svg28083"
   inkscape:version="0.48.4 r9939"
   sodipodi:docname="chomage-jeunes.svg">
  <sodipodi:namedview
     pagecolor="#ffffff"
     bordercolor="#666666"
     borderopacity="1"
     objecttolerance="10"
     gridtolerance="10"
     guidetolerance="10"
     inkscape:pageopacity="0"
     inkscape:pageshadow="2"
     inkscape:window-width="1680"
     inkscape:window-height="1026"
     id="namedview38"
     showgrid="false"
     inkscape:zoom="4.9166667"
     inkscape:cx="24"
     inkscape:cy="24"
     inkscape:window-x="1920"
     inkscape:window-y="24"
     inkscape:window-maximized="1"
     inkscape:current-layer="g3838-6" />
  <defs
     id="defs28085">
    <clipPath
       id="clipPath4901">
      <path
         d="m 315.748,1648.19 0.773,0 0,-0.63 -0.773,0 0,0.63 z"
         id="path4903" />
    </clipPath>
    <clipPath
       id="clipPath4905">
      <path
         d="m 315.759,1648.18 0.762,0 0,-0.62 -0.762,0 0,0.62 z"
         id="path4907" />
    </clipPath>
    <clipPath
       id="clipPath4909">
      <path
         d="m 315.748,1648.19 0.011,0 0,-0.01 -0.011,0 0,0.01 z"
         id="path4911" />
    </clipPath>
    <clipPath
       id="clipPath4857">
      <path
         d="m 327.146,1644.07 0.45,0 0,-0.02 -0.45,0 0,0.02 z"
         id="path4859" />
    </clipPath>
    <clipPath
       id="clipPath4861">
      <path
         d="m 327.146,1644.07 0.446,0 0,-0.02 -0.446,0 0,0.02 z"
         id="path4863" />
    </clipPath>
    <clipPath
       id="clipPath4865">
      <path
         d="m 327.592,1644.05 0.004,0 0,0 -0.004,0 z"
         id="path4867" />
    </clipPath>
  </defs>
  <metadata
     id="metadata28088">
    <rdf:RDF>
      <cc:Work
         rdf:about="">
        <dc:format>image/svg+xml</dc:format>
        <dc:type
           rdf:resource="http://purl.org/dc/dcmitype/StillImage" />
        <dc:title />
      </cc:Work>
    </rdf:RDF>
  </metadata>
  <g
     id="g3014">
    <g
       transform="translate(-0.20338983,0.86290997)"
       id="g3070">
      <g
         transform="matrix(0.12502416,0,0,0.11961434,9.2722787,14.239096)"
         id="g3006"
         style="color:#000000;fill:#cfcccd;fill-opacity:1;fill-rule:nonzero;stroke:none;marker:none;visibility:visible;display:inline;overflow:visible;enable-background:accumulate">
        <path
           d="m 56.613,71.952 c -0.002,-0.338 -0.024,-0.669 -0.057,-0.995 -0.023,-0.225 -0.208,-0.421 -0.476,-0.505 -1.797,-0.565 -3.73,-0.851 -5.779,-0.851 -2.269,0.003 -4.498,0.383 -6.448,1.098 -0.253,0.093 -0.421,0.286 -0.437,0.504 -0.019,0.253 -0.029,0.509 -0.029,0.77 0.005,2.039 0.632,3.979 1.762,5.464 1.258,1.654 2.985,2.565 4.861,2.565 0.001,0 0.008,0 0.008,0 3.341,-0.005 6.086,-2.922 6.528,-6.935 l 0,-10e-4 c 0,0 0,0 0,-0.001 0.046,-0.428 0.067,-0.781 0.067,-1.113 z M 44.922,71.631 c 1.647,-0.546 3.499,-0.835 5.412,-0.839 1.653,0 3.241,0.213 4.729,0.632 0.012,0.175 0.02,0.352 0.02,0.53 0,0.159 -0.005,0.325 -0.017,0.506 -0.161,0.013 -0.317,0.038 -0.477,0.055 -0.177,0.019 -0.354,0.037 -0.53,0.061 -0.301,0.041 -0.599,0.095 -0.894,0.152 -0.153,0.03 -0.308,0.054 -0.46,0.088 -0.381,0.085 -0.757,0.184 -1.128,0.295 -0.06,0.018 -0.123,0.031 -0.183,0.05 -0.429,0.134 -0.85,0.287 -1.265,0.455 -0.126,0.051 -0.247,0.111 -0.371,0.165 -0.287,0.125 -0.572,0.254 -0.851,0.396 -0.15,0.076 -0.296,0.159 -0.443,0.24 -0.248,0.136 -0.493,0.277 -0.734,0.426 -0.151,0.093 -0.299,0.19 -0.447,0.288 -0.232,0.155 -0.459,0.317 -0.684,0.484 -0.142,0.106 -0.285,0.212 -0.424,0.323 -0.066,0.053 -0.136,0.099 -0.201,0.153 -0.683,-1.186 -1.054,-2.619 -1.058,-4.119 0,-0.114 0.002,-0.228 0.006,-0.341 z"
           id="path4-6"
           style="color:#000000;fill:#cfcccd;fill-opacity:1;fill-rule:nonzero;stroke:none;marker:none;visibility:visible;display:inline;overflow:visible;enable-background:accumulate" />
        <path
           d="m 50,7.704 c -22.199,0 -37.114,14.915 -37.114,37.114 0,26.622 16.039,47.478 36.513,47.478 22.207,0 37.716,-19.523 37.716,-47.478 C 87.114,21.925 72.892,7.704 50,7.704 z M 49.398,89.258 C 31.477,89.258 17.274,71.461 16.023,48.164 L 26.645,36.118 c 0,0 25.983,6.308 46.109,0 L 84.018,47.569 C 83.051,72.254 69.091,89.258 49.398,89.258 z"
           id="path6-7"
           style="color:#000000;fill:#cfcccd;fill-opacity:1;fill-rule:nonzero;stroke:none;marker:none;visibility:visible;display:inline;overflow:visible;enable-background:accumulate" />
        <g
           id="g8-5"
           style="color:#000000;fill:#cfcccd;fill-opacity:1;fill-rule:nonzero;stroke:none;marker:none;visibility:visible;display:inline;overflow:visible;enable-background:accumulate">
          <path
             d="m 58.647,60.908 c -0.2,0 -0.402,-0.068 -0.567,-0.207 -0.373,-0.313 -0.421,-0.87 -0.107,-1.243 0.101,-0.12 2.492,-2.944 5.591,-2.83 1.736,0.067 3.283,1.031 4.599,2.866 0.284,0.396 0.193,0.947 -0.203,1.231 -0.395,0.284 -0.946,0.193 -1.231,-0.203 -0.982,-1.37 -2.07,-2.087 -3.233,-2.132 -2.17,-0.088 -4.155,2.179 -4.174,2.202 -0.173,0.209 -0.423,0.316 -0.675,0.316 z"
             id="path10"
             style="color:#000000;fill:#cfcccd;fill-opacity:1;fill-rule:nonzero;stroke:none;marker:none;visibility:visible;display:inline;overflow:visible;enable-background:accumulate" />
        </g>
        <circle
           cx="34.921001"
           cy="58.765999"
           r="3.25"
           id="circle12"
           style="color:#000000;fill:#cfcccd;fill-opacity:1;fill-rule:nonzero;stroke:none;marker:none;visibility:visible;display:inline;overflow:visible;enable-background:accumulate"
           d="m 38.171001,58.765999 c 0,1.794925 -1.455074,3.25 -3.25,3.25 -1.794925,0 -3.25,-1.455075 -3.25,-3.25 0,-1.794926 1.455075,-3.25 3.25,-3.25 1.794926,0 3.25,1.455074 3.25,3.25 z" />
      </g>
      <g
         transform="matrix(0.76458688,0,0,-0.76458688,20.924661,26.870459)"
         id="g7218">
        <path
           d="m 0,0 -1.737,0 -4.67,-11.236 1.4,6.3 -1.501,1.663 1.501,1.889 -2.115,2.266 -2.18,-2.343 1.5,-1.812 -1.5,-1.739 1.397,-6.049 L -12.482,0 -14.354,0 c -1.645,0 -2.979,-1.354 -2.979,-3.021 l 0,-14.387 c 0,-1.67 1.334,-3.023 2.979,-3.023 l 14.354,0 c 1.646,0 2.979,1.353 2.979,3.023 l 0,14.387 C 2.979,-1.354 1.646,0 0,0"
           id="path7220"
           style="fill:#cfcccd;fill-opacity:1;fill-rule:nonzero;stroke:none" />
      </g>
    </g>
    <g
       transform="matrix(0.81395212,0,0,0.81395212,2.7048828,5.8589324)"
       id="g3915">
      <path
         style="font-size:medium;font-style:normal;font-variant:normal;font-weight:normal;font-stretch:normal;text-indent:0;text-align:start;text-decoration:none;line-height:normal;letter-spacing:normal;word-spacing:normal;text-transform:none;direction:ltr;block-progression:tb;writing-mode:lr-tb;text-anchor:start;baseline-shift:baseline;color:#000000;fill:#cfcccd;fill-opacity:1;stroke:none;stroke-width:4.43536568;marker:none;visibility:visible;display:inline;overflow:visible;enable-background:accumulate;font-family:Sans;-inkscape-font-specification:Sans"
         d="m 36.992841,3.8435162 c -2.520731,0 -4.994386,1.0297931 -6.776813,2.8122188 -1.782427,1.7824256 -2.812219,4.256081 -2.812219,6.776813 0,2.520732 1.029792,5.004959 2.812219,6.787385 1.782427,1.782426 4.256082,2.812219 6.776813,2.812219 2.520731,0 5.004958,-1.029793 6.787385,-2.812219 1.782427,-1.782426 2.812219,-4.266653 2.812219,-6.787385 0,-2.520732 -1.029792,-4.9943874 -2.812219,-6.776813 C 41.997799,4.8733093 39.513572,3.8435162 36.992841,3.8435162 z m 0,1.5012596 c 2.108921,0 4.228355,0.8769529 5.719587,2.3681842 1.491233,1.4912314 2.378757,3.610667 2.378757,5.719588 0,2.108921 -0.887524,4.238928 -2.378757,5.73016 -1.491232,1.491231 -3.610666,2.368184 -5.719587,2.368184 -2.086311,0 -4.178185,-0.863674 -5.666727,-2.325895 l -0.05286,-0.04229 c -1.491232,-1.491232 -2.368184,-3.621239 -2.368184,-5.73016 0,-2.108921 0.876952,-4.2283566 2.368184,-5.719588 1.491232,-1.4912313 3.610666,-2.3681842 5.719588,-2.3681842 z"
         id="path3846"
         inkscape:connector-curvature="0" />
      <g
         transform="matrix(1,0,0,0.8727911,-117.62052,-12.914281)"
         id="g3838-6">
        <g
           transform="matrix(1.25,0,0,-1.25,154.08317,29.906286)"
           id="g214-7">
          <path
             d="m 0,0 c -0.455,0.007 -0.83,-0.355 -0.838,-0.812 -0.006,-0.455 0.358,-0.831 0.813,-0.836 0.457,-0.006 0.83,0.357 0.837,0.813 C 0.816,-0.381 0.455,-0.006 0,0"
             id="path216-5"
             style="fill:#cfcccd;fill-opacity:1;fill-rule:nonzero;stroke:none" />
        </g>
        <g
           transform="matrix(1.25,0,0,-1.25,160.19407,30.640986)"
           id="g218-3">
          <path
             d="m 0,0 -3.566,0.052 c -0.149,0.002 -0.27,-0.136 -0.272,-0.309 -0.002,-0.171 0.115,-0.311 0.264,-0.311 L -0.01,-0.62 C 0.139,-0.624 0.262,-0.486 0.262,-0.315 0.266,-0.143 0.148,-0.004 0,0"
             id="path220-5"
             style="fill:#cfcccd;fill-opacity:1;fill-rule:nonzero;stroke:none" />
        </g>
        <g
           transform="matrix(1.25,0,0,-1.25,154.10277,29.666886)"
           id="g222-6">
          <path
             d="M 0,0 C 0.172,-0.002 0.314,0.154 0.316,0.351 L 0.385,5.04 C 0.387,5.234 0.25,5.394 0.08,5.396 -0.092,5.399 -0.23,5.243 -0.234,5.048 L -0.301,0.359 C -0.305,0.164 -0.168,0.004 0,0"
             id="path224-2"
             style="fill:#cfcccd;fill-opacity:1;fill-rule:nonzero;stroke:none" />
        </g>
      </g>
    </g>
    <path
       style="font-size:medium;font-style:normal;font-variant:normal;font-weight:normal;font-stretch:normal;text-indent:0;text-align:start;text-decoration:none;line-height:normal;letter-spacing:normal;word-spacing:normal;text-transform:none;direction:ltr;block-progression:tb;writing-mode:lr-tb;text-anchor:start;baseline-shift:baseline;color:#000000;fill:#cfcccd;fill-opacity:1;stroke:none;stroke-width:2.0999999;marker:none;visibility:visible;display:inline;overflow:visible;enable-background:accumulate;font-family:Sans;-inkscape-font-specification:Sans"
       d="m 8.8125,9.4375 -1.46875,1.5 30.71875,30.71875 1.5,-1.5 L 8.8125,9.4375 z"
       id="path3806-9"
       inkscape:connector-curvature="0" />
    <path
       style="font-size:medium;font-style:normal;font-variant:normal;font-weight:normal;font-stretch:normal;text-indent:0;text-align:start;text-decoration:none;line-height:normal;letter-spacing:normal;word-spacing:normal;text-transform:none;direction:ltr;block-progression:tb;writing-mode:lr-tb;text-anchor:start;baseline-shift:baseline;color:#000000;fill:#cfcccd;fill-opacity:1;stroke:none;stroke-width:2.69607067;marker:none;visibility:visible;display:inline;overflow:visible;enable-background:accumulate;font-family:Sans;-inkscape-font-specification:Sans"
       d="m 24.283914,1.9191911 c -5.861554,0 -11.652562,2.407838 -15.7973075,6.5525808 -4.1447452,4.1447431 -6.5271831,9.9103551 -6.5271831,15.7719091 0,5.861555 2.3824379,11.652564 6.5271831,15.797307 4.1447455,4.144743 9.9357535,6.552581 15.7973075,6.552581 5.861553,0 11.652561,-2.407838 15.797307,-6.552581 4.144745,-4.144743 6.55258,-9.935752 6.55258,-15.797307 0,-5.861554 -2.407835,-11.627166 -6.55258,-15.7719091 C 35.936475,4.3270291 30.145467,1.9191911 24.283914,1.9191911 z m 0,2.1841936 c 5.260209,0 10.528524,2.1981139 14.248053,5.9176403 3.719529,3.719527 5.892243,8.962448 5.892243,14.222656 0,5.260209 -2.172714,10.528527 -5.892243,14.248054 -3.719529,3.719527 -8.987844,5.91764 -14.248053,5.91764 -5.224574,0 -10.4568,-2.167854 -14.171861,-5.841448 l -0.07619,-0.07619 C 6.3163308,34.772208 4.143617,29.50389 4.143617,24.243681 c 0,-5.260208 2.1727138,-10.503129 5.892243,-14.222656 3.719529,-3.7195264 8.987844,-5.9176403 14.248054,-5.9176403 z"
       id="path3925"
       inkscape:connector-curvature="0" />
  </g>
</svg>
