<?xml version="1.0" encoding="UTF-8" standalone="no"?>
<!-- Created with Inkscape (http://www.inkscape.org/) -->

<svg
   xmlns:dc="http://purl.org/dc/elements/1.1/"
   xmlns:cc="http://creativecommons.org/ns#"
   xmlns:rdf="http://www.w3.org/1999/02/22-rdf-syntax-ns#"
   xmlns:svg="http://www.w3.org/2000/svg"
   xmlns="http://www.w3.org/2000/svg"
   xmlns:sodipodi="http://sodipodi.sourceforge.net/DTD/sodipodi-0.dtd"
   xmlns:inkscape="http://www.inkscape.org/namespaces/inkscape"
   version="1.1"
   width="48"
   height="48"
   id="svg28083"
   inkscape:version="0.48.4 r9939"
   sodipodi:docname="machine-neige-ete.svg">
  <sodipodi:namedview
     pagecolor="#ffffff"
     bordercolor="#666666"
     borderopacity="1"
     objecttolerance="10"
     gridtolerance="10"
     guidetolerance="10"
     inkscape:pageopacity="0"
     inkscape:pageshadow="2"
     inkscape:window-width="1680"
     inkscape:window-height="1026"
     id="namedview40"
     showgrid="false"
     inkscape:zoom="27.812867"
     inkscape:cx="13.759188"
     inkscape:cy="7.3552517"
     inkscape:window-x="1920"
     inkscape:window-y="24"
     inkscape:window-maximized="1"
     inkscape:current-layer="g3034" />
  <defs
     id="defs28085">
    <clipPath
       id="clipPath4901">
      <path
         d="m 315.748,1648.19 0.773,0 0,-0.63 -0.773,0 0,0.63 z"
         id="path4903" />
    </clipPath>
    <clipPath
       id="clipPath4905">
      <path
         d="m 315.759,1648.18 0.762,0 0,-0.62 -0.762,0 0,0.62 z"
         id="path4907" />
    </clipPath>
    <clipPath
       id="clipPath4909">
      <path
         d="m 315.748,1648.19 0.011,0 0,-0.01 -0.011,0 0,0.01 z"
         id="path4911" />
    </clipPath>
    <clipPath
       id="clipPath4857">
      <path
         d="m 327.146,1644.07 0.45,0 0,-0.02 -0.45,0 0,0.02 z"
         id="path4859" />
    </clipPath>
    <clipPath
       id="clipPath4861">
      <path
         d="m 327.146,1644.07 0.446,0 0,-0.02 -0.446,0 0,0.02 z"
         id="path4863" />
    </clipPath>
    <clipPath
       id="clipPath4865">
      <path
         d="m 327.592,1644.05 0.004,0 0,0 -0.004,0 z"
         id="path4867" />
    </clipPath>
  </defs>
  <metadata
     id="metadata28088">
    <rdf:RDF>
      <cc:Work
         rdf:about="">
        <dc:format>image/svg+xml</dc:format>
        <dc:type
           rdf:resource="http://purl.org/dc/dcmitype/StillImage" />
        <dc:title />
      </cc:Work>
    </rdf:RDF>
  </metadata>
  <g
     id="g3034">
    <g
       transform="matrix(0.03410918,0,0,0.03410918,1.8008461,32.820904)"
       id="Icon_10_"
       style="color:#000000;fill:#cfcccd;fill-opacity:1;fill-rule:nonzero;stroke:none;marker:none;visibility:visible;display:inline;overflow:visible;enable-background:accumulate">
      <g
         id="g4"
         style="color:#000000;fill:#cfcccd;fill-opacity:1;fill-rule:nonzero;stroke:none;marker:none;visibility:visible;display:inline;overflow:visible;enable-background:accumulate">
        <g
           id="g6"
           style="color:#000000;fill:#cfcccd;fill-opacity:1;fill-rule:nonzero;stroke:none;marker:none;visibility:visible;display:inline;overflow:visible;enable-background:accumulate">
          <path
             style="color:#000000;fill:#cfcccd;fill-opacity:1;fill-rule:nonzero;stroke:none;marker:none;visibility:visible;display:inline;overflow:visible;enable-background:accumulate"
             d="M 4.34375 36.09375 C 3.5432417 36.09375 2.90625 36.761992 2.90625 37.5625 L 2.90625 45.5625 C 2.90625 46.363008 3.5432417 47 4.34375 47 L 16.71875 47 C 17.519258 47 18.1875 46.363008 18.1875 45.5625 L 18.1875 39.1875 C 18.1875 38.386992 17.519258 37.71875 16.71875 37.71875 L 10.53125 37.71875 L 9.0625 36.09375 L 4.34375 36.09375 z M 10.15625 39.5 L 11.28125 39.5 C 11.352378 39.5 11.423325 39.569451 11.4375 39.625 L 11.53125 40.34375 C 11.701963 40.413287 11.857744 40.513768 12 40.625 L 12.71875 40.34375 C 12.775717 40.316056 12.84653 40.350567 12.875 40.40625 L 13.46875 41.375 C 13.511395 41.44455 13.494467 41.520805 13.4375 41.5625 L 12.84375 42 C 12.84375 42.097378 12.84375 42.183872 12.84375 42.28125 C 12.84375 42.378628 12.857925 42.479123 12.84375 42.5625 L 13.46875 43.03125 C 13.511408 43.072959 13.52847 43.163214 13.5 43.21875 L 12.90625 44.15625 C 12.877767 44.211933 12.821115 44.246444 12.75 44.21875 L 12.03125 43.9375 C 11.874846 44.048746 11.733093 44.149213 11.5625 44.21875 L 11.4375 44.96875 C 11.423325 45.024299 11.383628 45.0625 11.3125 45.0625 L 10.15625 45.0625 C 10.085122 45.0625 10.045545 45.038287 10.03125 44.96875 L 9.90625 44.21875 C 9.735537 44.149213 9.548493 44.048732 9.40625 43.9375 L 8.71875 44.21875 C 8.6617967 44.246444 8.5597334 44.211933 8.53125 44.15625 L 7.96875 43.21875 C 7.9261186 43.1492 7.9430333 43.072945 8 43.03125 L 8.59375 42.5625 C 8.59375 42.465122 8.59375 42.378628 8.59375 42.28125 C 8.59375 42.183872 8.59375 42.097378 8.59375 42 L 7.96875 41.5625 C 7.9260918 41.520791 7.9404137 41.430536 7.96875 41.375 L 8.53125 40.40625 C 8.55972 40.350567 8.6163718 40.316056 8.6875 40.34375 L 9.40625 40.625 C 9.5628015 40.513754 9.7042737 40.413287 9.875 40.34375 L 10 39.625 C 10.014175 39.569451 10.085135 39.5 10.15625 39.5 z M 10.71875 41.3125 C 10.16394 41.3125 9.71875 41.738796 9.71875 42.28125 C 9.71875 42.823704 10.16394 43.25 10.71875 43.25 C 11.27356 43.25 11.71875 42.823704 11.71875 42.28125 C 11.71875 41.738796 11.27356 41.3125 10.71875 41.3125 z "
             transform="matrix(29.317621,0,0,29.317621,-52.796523,-962.23081)"
             id="path8" />
        </g>
      </g>
    </g>
    <g
       transform="matrix(0.02156268,-0.00548548,0.00548548,0.02156268,6.6457141,28.404749)"
       id="Icon_17_"
       style="color:#000000;fill:#cfcccd;fill-opacity:1;fill-rule:nonzero;stroke:none;marker:none;visibility:visible;display:inline;overflow:visible;enable-background:accumulate">
      <g
         id="g4-3"
         style="color:#000000;fill:#cfcccd;fill-opacity:1;fill-rule:nonzero;stroke:none;marker:none;visibility:visible;display:inline;overflow:visible;enable-background:accumulate">
        <path
           d="M 448,248 288,96 v 85.334 C 138.666,202.667 85.333,309.334 64,416 117.333,341.334 181.333,307.198 288,307.198 v 87.469 L 448,248 z"
           id="path6"
           style="color:#000000;fill:#cfcccd;fill-opacity:1;fill-rule:nonzero;stroke:none;marker:none;visibility:visible;display:inline;overflow:visible;enable-background:accumulate" />
      </g>
    </g>
    <g
       transform="matrix(0.01337247,0,0,0.01337247,7.2978981,38.865098)"
       id="g3"
       style="fill:#ffffff;fill-opacity:1" />
    <g
       transform="matrix(0.05033808,0,0,0.05033808,11.056985,-3.352961)"
       id="g5"
       style="color:#000000;fill:#cfcccd;fill-opacity:1;fill-rule:nonzero;stroke:none;stroke-width:0.51096231;marker:none;visibility:visible;display:inline;overflow:visible;enable-background:accumulate">
      <rect
         width="18"
         height="56"
         x="247"
         y="96"
         id="rect7"
         style="color:#000000;fill:#cfcccd;fill-opacity:1;fill-rule:nonzero;stroke:none;stroke-width:0.51096231;marker:none;visibility:visible;display:inline;overflow:visible;enable-background:accumulate" />
      <rect
         width="18"
         height="60"
         x="247"
         y="356"
         id="rect9"
         style="color:#000000;fill:#cfcccd;fill-opacity:1;fill-rule:nonzero;stroke:none;stroke-width:0.51096231;marker:none;visibility:visible;display:inline;overflow:visible;enable-background:accumulate" />
      <rect
         width="56"
         height="18"
         x="360"
         y="247"
         id="rect11"
         style="color:#000000;fill:#cfcccd;fill-opacity:1;fill-rule:nonzero;stroke:none;stroke-width:0.51096231;marker:none;visibility:visible;display:inline;overflow:visible;enable-background:accumulate" />
      <rect
         width="60"
         height="18"
         x="96"
         y="247"
         id="rect13"
         style="color:#000000;fill:#cfcccd;fill-opacity:1;fill-rule:nonzero;stroke:none;stroke-width:0.51096231;marker:none;visibility:visible;display:inline;overflow:visible;enable-background:accumulate" />
      <rect
         width="16.799999"
         height="47.799999"
         x="339"
         y="317.39999"
         transform="matrix(-0.7071,0.7071,-0.7071,-0.7071,834.4009,337.0126)"
         id="rect15"
         style="color:#000000;fill:#cfcccd;fill-opacity:1;fill-rule:nonzero;stroke:none;stroke-width:0.5109672;marker:none;visibility:visible;display:inline;overflow:visible;enable-background:accumulate" />
      <rect
         width="16.799999"
         height="47.900002"
         x="162.2"
         y="140.7"
         transform="matrix(-0.7071,0.7071,-0.7071,-0.7071,407.7248,160.277)"
         id="rect17"
         style="color:#000000;fill:#cfcccd;fill-opacity:1;fill-rule:nonzero;stroke:none;stroke-width:0.5109672;marker:none;visibility:visible;display:inline;overflow:visible;enable-background:accumulate" />
      <rect
         width="16.799999"
         height="47.799999"
         x="339"
         y="140.7"
         transform="matrix(0.7071,0.7071,-0.7071,0.7071,218.1171,-197.4504)"
         id="rect19"
         style="color:#000000;fill:#cfcccd;fill-opacity:1;fill-rule:nonzero;stroke:none;stroke-width:0.5109672;marker:none;visibility:visible;display:inline;overflow:visible;enable-background:accumulate" />
      <rect
         width="16.799999"
         height="47.900002"
         x="162.2"
         y="317.39999"
         transform="matrix(0.707,0.7072,-0.7072,0.707,291.3531,-20.7056)"
         id="rect21"
         style="color:#000000;fill:#cfcccd;fill-opacity:1;fill-rule:nonzero;stroke:none;stroke-width:0.5109672;marker:none;visibility:visible;display:inline;overflow:visible;enable-background:accumulate" />
      <path
         d="m 256,331.8 c -41.8,0 -75.8,-34 -75.8,-75.8 0,-41.8 34,-75.8 75.8,-75.8 41.8,0 75.8,34 75.8,75.8 0,41.8 -34,75.8 -75.8,75.8 z m 0,-134.7 c -32.5,0 -58.9,26.4 -58.9,58.9 0,32.5 26.4,58.9 58.9,58.9 32.5,0 58.9,-26.4 58.9,-58.9 0,-32.5 -26.4,-58.9 -58.9,-58.9 z"
         id="path23"
         style="color:#000000;fill:#cfcccd;fill-opacity:1;fill-rule:nonzero;stroke:none;stroke-width:0.51096231;marker:none;visibility:visible;display:inline;overflow:visible;enable-background:accumulate" />
    </g>
    <path
       d="m 26.278901,26.6119 h -1.596125 l 1.240155,-1.242069 -0.54161,-0.539697 -1.781766,1.781766 h -0.765528 v -0.765528 l 1.781766,-1.781766 -0.539698,-0.541611 -1.242068,1.240155 V 23.167025 H 22.0685 v 1.596125 l -1.242069,-1.240155 -0.539697,0.541611 1.781766,1.781766 V 26.6119 h -0.765528 l -1.781765,-1.781766 -0.541612,0.539697 1.240155,1.242069 h -1.596125 v 0.765527 h 1.596125 l -1.240155,1.242069 0.541612,0.539697 1.781765,-1.781766 H 22.0685 v 0.765528 l -1.781766,1.781765 0.539697,0.541612 1.242069,-1.240156 v 1.596126 h 0.765527 v -1.596126 l 1.242068,1.240156 0.539698,-0.541612 -1.781766,-1.781765 v -0.765528 h 0.765528 l 1.781766,1.781766 0.54161,-0.539697 -1.240155,-1.242069 h 1.596125 z"
       id="path4"
       style="color:#000000;fill:#cfcccd;fill-opacity:1;fill-rule:nonzero;stroke:none;stroke-width:0.02224949;marker:none;visibility:visible;display:inline;overflow:visible;enable-background:accumulate" />
    <path
       d="m 35.603809,24.011076 h -1.596125 l 1.240155,-1.242068 -0.541611,-0.539698 -1.781766,1.781766 h -0.765528 v -0.765528 l 1.781766,-1.781766 -0.539697,-0.54161 -1.242069,1.240155 v -1.596125 h -0.765527 v 1.596125 l -1.242068,-1.240155 -0.539698,0.54161 1.781766,1.781766 v 0.765528 h -0.765528 l -1.781765,-1.781766 -0.541611,0.539698 1.240155,1.242068 h -1.596125 v 0.765527 h 1.596125 l -1.240155,1.242069 0.541611,0.539697 1.781765,-1.781766 h 0.765528 v 0.765528 l -1.781766,1.781765 0.539698,0.541612 1.242068,-1.240155 v 1.596125 h 0.765527 v -1.596125 l 1.242069,1.240155 0.539697,-0.541612 -1.781766,-1.781765 v -0.765528 h 0.765528 l 1.781766,1.781766 0.541611,-0.539697 -1.240155,-1.242069 h 1.596125 z"
       id="path3023"
       style="color:#000000;fill:#cfcccd;fill-opacity:1;fill-rule:nonzero;stroke:none;stroke-width:0.02224949;marker:none;visibility:visible;display:inline;overflow:visible;enable-background:accumulate" />
    <path
       d="M 43.850326,28.197768 H 42.2542 L 43.494356,26.9557 42.952745,26.416002 41.170979,28.197768 H 40.405451 V 27.43224 l 1.781766,-1.781766 -0.539697,-0.54161 -1.242069,1.240155 v -1.596125 h -0.765527 v 1.596125 l -1.242069,-1.240155 -0.539697,0.54161 1.781766,1.781766 v 0.765528 h -0.765528 l -1.781765,-1.781766 -0.541612,0.539698 1.240156,1.242068 h -1.596126 v 0.765527 h 1.596126 l -1.240156,1.242069 0.541612,0.539697 1.781765,-1.781766 h 0.765528 v 0.765528 l -1.781766,1.781765 0.539697,0.541612 1.242069,-1.240155 v 1.596125 h 0.765527 v -1.596125 l 1.242069,1.240155 0.539697,-0.541612 -1.781766,-1.781765 v -0.765528 h 0.765528 l 1.781766,1.781766 0.541611,-0.539697 -1.240156,-1.242069 h 1.596126 z"
       id="path3025"
       style="color:#000000;fill:#cfcccd;fill-opacity:1;fill-rule:nonzero;stroke:none;stroke-width:0.02224949;marker:none;visibility:visible;display:inline;overflow:visible;enable-background:accumulate" />
  </g>
</svg>
