<?xml version="1.0" encoding="UTF-8" standalone="no"?>
<!-- Created with Inkscape (http://www.inkscape.org/) -->

<svg
   xmlns:dc="http://purl.org/dc/elements/1.1/"
   xmlns:cc="http://creativecommons.org/ns#"
   xmlns:rdf="http://www.w3.org/1999/02/22-rdf-syntax-ns#"
   xmlns:svg="http://www.w3.org/2000/svg"
   xmlns="http://www.w3.org/2000/svg"
   xmlns:sodipodi="http://sodipodi.sourceforge.net/DTD/sodipodi-0.dtd"
   xmlns:inkscape="http://www.inkscape.org/namespaces/inkscape"
   version="1.1"
   width="48"
   height="48"
   id="svg28083"
   inkscape:version="0.48.4 r9939"
   sodipodi:docname="maison-de-retraite.svg">
  <sodipodi:namedview
     pagecolor="#ffffff"
     bordercolor="#666666"
     borderopacity="1"
     objecttolerance="10"
     gridtolerance="10"
     guidetolerance="10"
     inkscape:pageopacity="0"
     inkscape:pageshadow="2"
     inkscape:window-width="1680"
     inkscape:window-height="1026"
     id="namedview33"
     showgrid="false"
     inkscape:zoom="19.666667"
     inkscape:cx="25.252473"
     inkscape:cy="20.207565"
     inkscape:window-x="1920"
     inkscape:window-y="24"
     inkscape:window-maximized="1"
     inkscape:current-layer="svg28083" />
  <defs
     id="defs28085">
    <clipPath
       id="clipPath4901">
      <path
         d="m 315.748,1648.19 0.773,0 0,-0.63 -0.773,0 0,0.63 z"
         id="path4903" />
    </clipPath>
    <clipPath
       id="clipPath4905">
      <path
         d="m 315.759,1648.18 0.762,0 0,-0.62 -0.762,0 0,0.62 z"
         id="path4907" />
    </clipPath>
    <clipPath
       id="clipPath4909">
      <path
         d="m 315.748,1648.19 0.011,0 0,-0.01 -0.011,0 0,0.01 z"
         id="path4911" />
    </clipPath>
    <clipPath
       id="clipPath4857">
      <path
         d="m 327.146,1644.07 0.45,0 0,-0.02 -0.45,0 0,0.02 z"
         id="path4859" />
    </clipPath>
    <clipPath
       id="clipPath4861">
      <path
         d="m 327.146,1644.07 0.446,0 0,-0.02 -0.446,0 0,0.02 z"
         id="path4863" />
    </clipPath>
    <clipPath
       id="clipPath4865">
      <path
         d="m 327.592,1644.05 0.004,0 0,0 -0.004,0 z"
         id="path4867" />
    </clipPath>
  </defs>
  <metadata
     id="metadata28088">
    <rdf:RDF>
      <cc:Work
         rdf:about="">
        <dc:format>image/svg+xml</dc:format>
        <dc:type
           rdf:resource="http://purl.org/dc/dcmitype/StillImage" />
        <dc:title />
      </cc:Work>
    </rdf:RDF>
  </metadata>
  <g
     transform="matrix(0.10858051,0,0,0.10858051,-3.3898285,-2.983052)"
     id="g3">
    <path
       style="font-size:medium;font-style:normal;font-variant:normal;font-weight:normal;font-stretch:normal;text-indent:0;text-align:start;text-decoration:none;line-height:normal;letter-spacing:normal;word-spacing:normal;text-transform:none;direction:ltr;block-progression:tb;writing-mode:lr-tb;text-anchor:start;baseline-shift:baseline;color:#000000;fill:#cfcccd;fill-opacity:1;stroke:none;stroke-width:8.02479935;marker:none;visibility:visible;display:inline;overflow:visible;enable-background:accumulate;font-family:Sans;-inkscape-font-specification:Sans"
       d="m 256,106.875 -2.5,2 -160,128 -1.5,1.1875 0,1.9375 0,208 0,4 4,0 112,0 4,0 0,-4 0,-124 88,0 0,124 0,4 4,0 112,0 4,0 0,-4 0,-208 0,-1.9375 -1.5,-1.1875 -160,-128 -2.5,-2 z m 0,10.25 156,124.8125 0,202.0625 -104,0 0,-124 0,-4 -4,0 -96,0 -4,0 0,4 0,124 -104,0 0,-202.0625 156,-124.8125 z"
       id="path5"
       inkscape:connector-curvature="0" />
    <path
       d="m 256,64 -96,76.8 V 96 H 96 v 95.999 L 64,217.498 75.51,228.882 256,84.49 436.49,228.883 448,217.498 256,64 z"
       id="path7"
       style="color:#000000;fill:#cfcccd;fill-opacity:1;fill-rule:nonzero;stroke:none;stroke-width:8.02479935;marker:none;visibility:visible;display:inline;overflow:visible;enable-background:accumulate" />
  </g>
  <g
     transform="matrix(0.0885522,0,0,0.0885522,9.894436,25.854247)"
     id="g4-3">
    <path
       d="m 47.182,12.738 c 1.75,0 3.511,0.202 5.231,0.604 7.851,1.829 13.819,7.504 16.392,14.567 C 68.326,20.738 66.877,7.343 62.639,4.26 56.78,0 47.196,0 47.196,0 c 0,0 -9.586,0 -15.444,4.26 -4.246,3.087 -5.693,16.513 -6.168,23.677 3.245,-9.065 11.77,-15.199 21.598,-15.199 z"
       id="path6"
       style="fill:#cfcccd;fill-opacity:1;stroke:#ffffff;stroke-width:1.56557047;stroke-miterlimit:4;stroke-opacity:1;stroke-dasharray:none"
       inkscape:connector-curvature="0" />
    <path
       d="m 25.529,231.929 c 0,5.523 4.476,10 10,10 5.521,0 10,-4.477 10,-10 v -46.524 c -8.06,-0.046 -14.643,-0.422 -20,-1.003 v 47.527 z"
       id="path8"
       style="fill:#cfcccd;fill-opacity:1;stroke:#ffffff;stroke-width:1.56557047;stroke-miterlimit:4;stroke-opacity:1;stroke-dasharray:none"
       inkscape:connector-curvature="0" />
    <path
       d="m 48.862,231.929 c 0,5.523 4.476,10 10,10 5.521,0 10,-4.477 10,-10 v -47.527 c -5.358,0.582 -11.94,0.957 -20,1.004 v 46.523 z"
       id="path10"
       style="fill:#cfcccd;fill-opacity:1;stroke:#ffffff;stroke-width:1.56557047;stroke-miterlimit:4;stroke-opacity:1;stroke-dasharray:none"
       inkscape:connector-curvature="0" />
    <path
       d="m 25.529,182.388 c 5.285,0.583 11.86,0.968 20,1.015 0.557,0.003 1.095,0.011 1.667,0.011 0.571,0 1.109,-0.008 1.666,-0.011 8.14,-0.047 14.715,-0.432 20,-1.015 6.008,-0.662 10.368,-1.574 13.525,-2.523 0.799,-12.895 1.842,-23.072 2.871,-30.902 l -1.379,-6.914 -8.834,-44.31 c -5.791,10.551 -9.213,23.263 -10.189,37.987 -0.16,2.469 -1.223,4.679 -2.844,6.334 -1.822,1.86 -4.35,3.018 -7.129,3.018 -0.215,0 -0.43,-0.008 -0.645,-0.019 -2.559,-0.167 -4.823,-1.291 -6.488,-2.99 -1.922,-1.961 -3.043,-4.691 -2.851,-7.637 0.117,-1.865 0.273,-3.684 0.457,-5.465 -9.752,-1.983 -17.867,-4.399 -24.637,-7.336 -2.008,-0.876 -3.857,-1.793 -5.59,-2.744 l -4.625,23.2 -6.642,33.314 c 0,-0.002 2.072,4.826 21.667,6.987 z m 43.333,-27.401 -5.266,1.76 -1.197,-4.164 5.728,-1.403 11.197,-2.743 0.668,2.832 -11.13,3.718 z m -38.067,1.76 -5.267,-1.76 -11.13,-3.719 0.666,-2.832 11.197,2.743 5.73,1.403 -1.196,4.165 z"
       id="path12"
       style="fill:#cfcccd;fill-opacity:1;stroke:#ffffff;stroke-width:1.56557047;stroke-miterlimit:4;stroke-opacity:1;stroke-dasharray:none"
       inkscape:connector-curvature="0" />
    <path
       d="M 87.407,120.24 V 87.624 c -0.747,-1.231 -1.525,-2.434 -2.326,-3.615 -0.387,0.399 -0.775,0.796 -1.152,1.207 -2.707,2.981 -5.128,6.236 -7.273,9.744 1.881,3.157 3.624,6.579 5.209,10.199 2.108,4.787 3.94,9.889 5.542,15.081 z"
       id="path14-6"
       style="fill:#cfcccd;fill-opacity:1;stroke:#ffffff;stroke-width:1.56557047;stroke-miterlimit:4;stroke-opacity:1;stroke-dasharray:none"
       inkscape:connector-curvature="0" />
    <path
       d="m 53.528,74.392 c -3.166,-0.167 -6,-5.167 -6,-5.167 0,0 1.883,-1.392 3.859,-3.604 0.973,-1.09 1.959,-2.38 2.764,-3.808 -2.249,-0.395 -4.569,-0.605 -6.955,-0.599 -2.309,0.011 -4.645,0.21 -6.979,0.56 0.809,1.443 1.804,2.747 2.787,3.848 1.975,2.212 3.858,3.604 3.858,3.604 0,0 -2.833,5 -6,5.167 -1.998,0.105 -5.191,-4.371 -7.275,-7.687 -0.805,-1.28 -1.445,-2.388 -1.785,-2.992 -5.33,1.657 -10.478,4.06 -15.096,7 C 12.212,73.608 8.222,77.03 5.179,81.064 2.16,85.071 0.01,89.857 0,95.19 c -0.02,4.059 1.352,8.232 3.942,11.826 0.005,0.008 0.01,0.017 0.016,0.024 0.721,1 1.547,1.952 2.431,2.879 2.426,2.546 5.457,4.834 9.149,6.914 1.835,1.033 3.816,2.021 5.975,2.962 6.397,2.774 14.313,5.177 24.067,7.174 0.648,0.132 1.305,0.263 1.969,0.392 2.013,0.391 4.092,0.768 6.26,1.125 0.357,0.059 0.715,0.088 1.065,0.088 3.124,0 5.88,-2.26 6.405,-5.444 0.582,-3.542 -1.816,-6.886 -5.355,-7.47 -2.154,-0.354 -4.207,-0.727 -6.178,-1.113 -0.666,-0.13 -1.32,-0.263 -1.965,-0.396 -8.902,-1.847 -15.869,-4.006 -21.092,-6.278 -3.631,-1.568 -6.387,-3.191 -8.422,-4.726 -1.745,-1.316 -2.964,-2.569 -3.733,-3.666 -0.003,-0.004 -0.007,-0.008 -0.009,-0.012 -0.027,-0.037 -0.057,-0.069 -0.084,-0.106 l 0.008,-0.01 C 13.328,97.711 13.02,96.481 13,95.191 c -0.01,-1.695 0.716,-3.853 2.565,-6.314 1.57,-2.115 3.953,-4.296 6.803,-6.292 l -3.661,18.359 c 1.757,1.449 4.513,3.253 8.775,5.092 5.483,2.386 12.445,4.453 20.759,6.17 3.51,-14.213 9.11,-24.971 14.77,-32.882 2.08,-2.91 4.169,-5.44 6.164,-7.609 0.188,-0.206 0.375,-0.393 0.563,-0.594 0.565,-0.605 1.128,-1.196 1.688,-1.76 -0.1,-0.074 -0.193,-0.155 -0.293,-0.229 -2.71,-1.983 -5.662,-3.654 -8.813,-4.947 -0.363,0.631 -0.889,1.522 -1.517,2.521 -2.083,3.315 -5.275,7.791 -7.275,7.686 z"
       id="path16-7"
       style="fill:#cfcccd;fill-opacity:1;stroke:#ffffff;stroke-width:1.56557047;stroke-miterlimit:4;stroke-opacity:1;stroke-dasharray:none"
       inkscape:connector-curvature="0" />
    <path
       d="m 42.435,56.186 c 11.292,2.629 22.578,-4.394 25.209,-15.687 0.603,-2.59 0.676,-5.175 0.328,-7.66 -1.169,-8.35 -7.313,-15.523 -16.015,-17.549 -11.293,-2.629 -22.58,4.393 -25.21,15.686 -0.145,0.621 -0.249,1.242 -0.335,1.861 -1.499,10.648 5.349,20.863 16.023,23.349 z"
       id="path18-5"
       style="fill:#cfcccd;fill-opacity:1;stroke:#ffffff;stroke-width:1.56557047;stroke-miterlimit:4;stroke-opacity:1;stroke-dasharray:none"
       inkscape:connector-curvature="0" />
    <path
       d="m 183.367,120.107 c 0.751,1.358 1.182,2.918 1.186,4.58 v 113.499 c 0,2.76 2.238,5.002 4.998,5.002 2.762,0 5.002,-2.242 5.002,-5.002 l -0.002,-113.499 c -0.002,-7.479 -4.213,-13.965 -10.391,-17.236 0.239,2.462 0.414,4.975 0.473,7.575 0.044,1.843 -0.426,3.577 -1.266,5.081 z"
       id="path20-3"
       style="fill:#cfcccd;fill-opacity:1;stroke:#ffffff;stroke-width:1.56557047;stroke-miterlimit:4;stroke-opacity:1;stroke-dasharray:none"
       inkscape:connector-curvature="0" />
    <path
       d="m 164.186,108.496 c -5.207,3.501 -8.632,9.444 -8.635,16.191 0,2.761 2.238,5.001 5.002,5.001 2.76,0 5,-2.24 5,-5.001 h -0.002 c 0.002,-1.368 0.299,-2.666 0.82,-3.84 -1.05,-1.54 -1.688,-3.378 -1.734,-5.355 -0.057,-2.426 -0.209,-4.759 -0.451,-6.996 z"
       id="path22"
       style="fill:#cfcccd;fill-opacity:1;stroke:#ffffff;stroke-width:1.56557047;stroke-miterlimit:4;stroke-opacity:1;stroke-dasharray:none"
       inkscape:connector-curvature="0" />
    <path
       d="m 151.624,193.945 c -1.239,-30.411 -3.891,-48.806 -5.743,-58.45 0,-0.045 0.006,-0.088 0.006,-0.135 l 0,-60.73 c 1.781,0.822 3.662,1.887 5.512,3.287 3.568,2.686 7.117,6.504 9.978,12.395 2.107,4.371 3.834,9.936 4.695,17.076 0.299,2.489 0.496,5.167 0.564,8.057 0.029,1.251 0.352,2.424 0.89,3.467 1.332,2.585 4.02,4.347 7.106,4.348 0.063,0 0.125,-0.002 0.189,-0.004 3.282,-0.077 6.054,-2.121 7.221,-4.978 0.402,-0.988 0.617,-2.071 0.59,-3.206 -0.068,-2.992 -0.263,-5.839 -0.561,-8.562 -1.04,-9.532 -3.41,-17.453 -6.68,-23.949 -6.285,-12.573 -15.861,-19.462 -23.648,-22.845 -4.514,-1.976 -8.443,-2.892 -11.096,-3.32 -0.883,-0.331 -1.832,-0.521 -2.83,-0.521 l -0.992,0 c -3.489,4.002 -8.127,6.808 -13.4,8.037 -1.908,0.443 -3.859,0.67 -5.801,0.67 -7.592,0 -14.478,-3.308 -19.182,-8.707 l -0.969,0 c -1.014,0 -1.98,0.195 -2.873,0.537 -0.662,0.072 -1.326,0.221 -1.977,0.469 l -0.002,-0.003 c -0.736,0.287 -9.686,3.804 -19.605,13.719 -0.787,0.787 -1.578,1.601 -2.373,2.469 -0.143,0.154 -0.283,0.314 -0.425,0.471 -1.882,2.081 -3.765,4.396 -5.601,6.967 -5.767,8.082 -11.069,18.652 -14.406,32.097 1.945,0.379 3.955,0.741 6.037,1.083 2.24,0.369 4.201,1.59 5.525,3.435 1.322,1.845 1.849,4.095 1.48,6.335 -0.682,4.123 -4.204,7.117 -8.379,7.117 -0.457,0 -0.923,-0.037 -1.384,-0.111 -2.126,-0.351 -4.175,-0.72 -6.165,-1.105 -0.174,1.7 -0.32,3.433 -0.432,5.204 -0.208,3.188 1.486,6.051 4.104,7.506 1.004,0.559 2.139,0.916 3.361,0.996 0.176,0.01 0.35,0.016 0.524,0.016 1.4,0 2.723,-0.371 3.879,-1.016 2.293,-1.279 3.916,-3.652 4.098,-6.467 1.213,-18.278 5.963,-31.397 11.584,-40.87 0.341,-0.574 0.686,-1.13 1.031,-1.678 2.27,-3.587 4.65,-6.619 6.977,-9.181 0.492,-0.538 0.98,-1.04 1.467,-1.535 1.911,-1.948 3.771,-3.587 5.488,-4.94 l 0,13.685 0,36.084 0,8.201 c 0,0.045 0.006,0.088 0.006,0.131 -0.645,3.355 -1.387,7.777 -2.131,13.386 -0.262,1.961 -0.521,4.065 -0.779,6.325 -0.756,6.633 -1.479,14.581 -2.074,23.985 -0.045,0.716 -0.089,1.441 -0.133,2.174 -0.787,13.227 -1.314,29.222 -1.316,48.395 0,7.18 5.82,13 13.002,13 7.18,0 12.998,-5.82 12.998,-13 0,-36.287 1.936,-60.508 3.814,-75.439 0.559,-4.428 1.109,-8.02 1.604,-10.889 l 6.502,0 c 1.551,9.013 3.668,25.347 4.738,51.253"
       id="path32"
       style="fill:#cfcccd;fill-opacity:1;stroke:#ffffff;stroke-width:1.56557047;stroke-miterlimit:4;stroke-opacity:1;stroke-dasharray:none"
       inkscape:connector-curvature="0" />
    <path
       d="m 101.223,55.876 c 5.545,5.413 13.644,7.976 21.75,6.088 4.35,-1.013 8.134,-3.174 11.106,-6.088 0.644,-0.631 1.245,-1.302 1.81,-2 4.402,-5.438 6.346,-12.774 4.635,-20.117 C 137.583,21.126 124.954,13.267 112.319,16.21 99.686,19.151 91.826,31.779 94.77,44.413 c 0.834,3.585 2.449,6.785 4.623,9.463 0.572,0.705 1.185,1.37 1.83,2 z"
       id="path34"
       style="fill:#cfcccd;fill-opacity:1;stroke:#ffffff;stroke-width:1.56557047;stroke-miterlimit:4;stroke-opacity:1;stroke-dasharray:none"
       inkscape:connector-curvature="0" />
    <path
       d="m 148.77361,155.202 c 0.756,6.633 1.479,14.581 2.074,23.985 0.045,0.716 0.089,1.441 0.133,2.174 0.787,13.227 1.314,29.222 1.316,48.395 0,7.18 -5.82,13 -13.002,13 -7.18,0 -12.998,-5.82 -12.998,-13 0,-36.287 -1.936,-60.508 -3.814,-75.439"
       id="path3819"
       style="fill:#cfcccd;fill-opacity:1;stroke:#ffffff;stroke-width:1.56557047;stroke-miterlimit:4;stroke-opacity:1;stroke-dasharray:none"
       inkscape:connector-curvature="0" />
  </g>
</svg>
