<?xml version="1.0" encoding="UTF-8" standalone="no"?>
<!-- Created with Inkscape (http://www.inkscape.org/) -->

<svg
   xmlns:dc="http://purl.org/dc/elements/1.1/"
   xmlns:cc="http://creativecommons.org/ns#"
   xmlns:rdf="http://www.w3.org/1999/02/22-rdf-syntax-ns#"
   xmlns:svg="http://www.w3.org/2000/svg"
   xmlns="http://www.w3.org/2000/svg"
   xmlns:sodipodi="http://sodipodi.sourceforge.net/DTD/sodipodi-0.dtd"
   xmlns:inkscape="http://www.inkscape.org/namespaces/inkscape"
   width="48px"
   height="48px"
   id="svg3210"
   version="1.1"
   inkscape:version="0.92.1 r"
   sodipodi:docname="MI.svg">
  <defs
     id="defs3212" />
  <sodipodi:namedview
     id="base"
     pagecolor="#ffffff"
     bordercolor="#666666"
     borderopacity="1.0"
     inkscape:pageopacity="0.0"
     inkscape:pageshadow="2"
     inkscape:zoom="7"
     inkscape:cx="24"
     inkscape:cy="33.476602"
     inkscape:current-layer="g3003"
     showgrid="true"
     inkscape:grid-bbox="true"
     inkscape:document-units="px"
     inkscape:window-width="1080"
     inkscape:window-height="926"
     inkscape:window-x="0"
     inkscape:window-y="112"
     inkscape:window-maximized="0" />
  <metadata
     id="metadata3215">
    <rdf:RDF>
      <cc:Work
         rdf:about="">
        <dc:format>image/svg+xml</dc:format>
        <dc:type
           rdf:resource="http://purl.org/dc/dcmitype/StillImage" />
        <dc:title></dc:title>
      </cc:Work>
    </rdf:RDF>
  </metadata>
  <g
     id="layer1"
     inkscape:label="Layer 1"
     inkscape:groupmode="layer">
    <g
       id="g3342"
       transform="matrix(1.222754,0,0,1.222754,-0.44219554,-7.9761966)">
      <g
         id="g4164"
         style="fill-rule:evenodd;fill:#cfcccd;fill-opacity:1">
        <g
           id="g3009">
          <g
             id="g3003">
            <g
               id="g3265"
               transform="matrix(1.087471,0,0,1.1221393,-11.595262,21.257229)"
               style="fill:#cfcccd;fill-opacity:1;fill-rule:evenodd" />
            <g
               transform="matrix(1.2012071,0,0,1.2137091,0.87836667,6.8816837)"
               id="g3001-8"
               style="fill:#cfcccd;fill-opacity:1;fill-rule:evenodd">
              <g
                 id="g3003-4"
                 style="fill:#cfcccd;fill-opacity:1;fill-rule:evenodd">
                <path
                   id="polygon3005-3"
                   d="M 2.422,12.186 16,2.46 29.578,12.186 30.742,10.56 16,0 1.258,10.56 Z"
                   style="fill:#cfcccd;fill-opacity:1;fill-rule:evenodd"
                   inkscape:connector-curvature="0" />
                <path
                   inkscape:connector-curvature="0"
                   d="M 27.789,13.995 16,5.491 4.211,13.995 V 32 H 27.789 Z M 18.542,30 H 13.459 V 19.417 h 5.083 z m 7.247,0 H 20.541 V 17.417 H 11.458 V 30 H 6.211 V 15.018 L 16,7.957 l 9.789,7.061 z"
                   id="path3007-5"
                   style="fill:#cfcccd;fill-opacity:1;fill-rule:evenodd" />
              </g>
            </g>
          </g>
        </g>
      </g>
    </g>
  </g>
</svg>
