<?xml version="1.0" encoding="UTF-8" standalone="no"?>
<!-- Created with Inkscape (http://www.inkscape.org/) -->

<svg
   xmlns:dc="http://purl.org/dc/elements/1.1/"
   xmlns:cc="http://creativecommons.org/ns#"
   xmlns:rdf="http://www.w3.org/1999/02/22-rdf-syntax-ns#"
   xmlns:svg="http://www.w3.org/2000/svg"
   xmlns="http://www.w3.org/2000/svg"
   xmlns:sodipodi="http://sodipodi.sourceforge.net/DTD/sodipodi-0.dtd"
   xmlns:inkscape="http://www.inkscape.org/namespaces/inkscape"
   version="1.1"
   width="48"
   height="48"
   id="svg28083"
   inkscape:version="0.48.4 r9943 custom"
   sodipodi:docname="emplois-commune-par-exterieur.svg">
  <sodipodi:namedview
     pagecolor="#ffffff"
     bordercolor="#666666"
     borderopacity="1"
     objecttolerance="10"
     gridtolerance="10"
     guidetolerance="10"
     inkscape:pageopacity="0"
     inkscape:pageshadow="2"
     inkscape:window-width="960"
     inkscape:window-height="1031"
     id="namedview61"
     showgrid="false"
     inkscape:zoom="6.07"
     inkscape:cx="19.774958"
     inkscape:cy="23.553901"
     inkscape:window-x="1080"
     inkscape:window-y="23"
     inkscape:window-maximized="0"
     inkscape:current-layer="g3036" />
  <defs
     id="defs28085">
    <marker
       refX="0"
       refY="0"
       orient="auto"
       id="Arrow2Send"
       style="overflow:visible">
      <path
         d="M 8.7185878,4.0337352 -2.2072895,0.01601326 8.7185884,-4.0017078 c -1.7454984,2.3720609 -1.7354408,5.6174519 -6e-7,8.035443 z"
         transform="matrix(-0.3,0,0,-0.3,0.69,0)"
         id="path3974"
         style="fill-rule:evenodd;stroke-width:0.625;stroke-linejoin:round" />
    </marker>
    <marker
       refX="0"
       refY="0"
       orient="auto"
       id="Arrow2Sstart"
       style="overflow:visible">
      <path
         d="M 8.7185878,4.0337352 -2.2072895,0.01601326 8.7185884,-4.0017078 c -1.7454984,2.3720609 -1.7354408,5.6174519 -6e-7,8.035443 z"
         transform="matrix(0.3,0,0,0.3,-0.69,0)"
         id="path3971"
         style="fill-rule:evenodd;stroke-width:0.625;stroke-linejoin:round" />
    </marker>
    <marker
       refX="0"
       refY="0"
       orient="auto"
       id="Arrow2Lstart"
       style="overflow:visible">
      <path
         d="M 8.7185878,4.0337352 -2.2072895,0.01601326 8.7185884,-4.0017078 c -1.7454984,2.3720609 -1.7354408,5.6174519 -6e-7,8.035443 z"
         transform="matrix(1.1,0,0,1.1,1.1,0)"
         id="path3959"
         style="fill-rule:evenodd;stroke-width:0.625;stroke-linejoin:round" />
    </marker>
    <marker
       refX="0"
       refY="0"
       orient="auto"
       id="Arrow1Mstart"
       style="overflow:visible">
      <path
         d="M 0,0 5,-5 -12.5,0 5,5 0,0 z"
         transform="matrix(0.4,0,0,0.4,4,0)"
         id="path3947"
         style="fill-rule:evenodd;stroke:#000000;stroke-width:1pt" />
    </marker>
    <marker
       refX="0"
       refY="0"
       orient="auto"
       id="Arrow1Lend"
       style="overflow:visible">
      <path
         d="M 0,0 5,-5 -12.5,0 5,5 0,0 z"
         transform="matrix(-0.8,0,0,-0.8,-10,0)"
         id="path3944"
         style="fill-rule:evenodd;stroke:#000000;stroke-width:1pt" />
    </marker>
    <marker
       refX="0"
       refY="0"
       orient="auto"
       id="Arrow1Lstart"
       style="overflow:visible">
      <path
         d="M 0,0 5,-5 -12.5,0 5,5 0,0 z"
         transform="matrix(0.8,0,0,0.8,10,0)"
         id="path3941"
         style="fill-rule:evenodd;stroke:#000000;stroke-width:1pt" />
    </marker>
    <clipPath
       id="clipPath4901">
      <path
         d="m 315.748,1648.19 0.773,0 0,-0.63 -0.773,0 0,0.63 z"
         id="path4903" />
    </clipPath>
    <clipPath
       id="clipPath4905">
      <path
         d="m 315.759,1648.18 0.762,0 0,-0.62 -0.762,0 0,0.62 z"
         id="path4907" />
    </clipPath>
    <clipPath
       id="clipPath4909">
      <path
         d="m 315.748,1648.19 0.011,0 0,-0.01 -0.011,0 0,0.01 z"
         id="path4911" />
    </clipPath>
    <clipPath
       id="clipPath4857">
      <path
         d="m 327.146,1644.07 0.45,0 0,-0.02 -0.45,0 0,0.02 z"
         id="path4859" />
    </clipPath>
    <clipPath
       id="clipPath4861">
      <path
         d="m 327.146,1644.07 0.446,0 0,-0.02 -0.446,0 0,0.02 z"
         id="path4863" />
    </clipPath>
    <clipPath
       id="clipPath4865">
      <path
         d="m 327.592,1644.05 0.004,0 0,0 -0.004,0 z"
         id="path4867" />
    </clipPath>
  </defs>
  <metadata
     id="metadata28088">
    <rdf:RDF>
      <cc:Work
         rdf:about="">
        <dc:format>image/svg+xml</dc:format>
        <dc:type
           rdf:resource="http://purl.org/dc/dcmitype/StillImage" />
        <dc:title></dc:title>
      </cc:Work>
    </rdf:RDF>
  </metadata>
  <g
     id="g3036">
    <g
       id="g3133">
      <g
         style="color:#000000;fill:#000000;fill-opacity:1;fill-rule:nonzero;stroke-width:0.92180866;stroke-linecap:butt;stroke-linejoin:miter;stroke-miterlimit:4;stroke-opacity:1;stroke-dasharray:none;stroke-dashoffset:0;marker:none;visibility:visible;display:inline;overflow:visible;enable-background:accumulate"
         id="g2993"
         transform="matrix(0.91792249,0,0,0.91792249,71.101014,-30.572289)">
        <path
           inkscape:connector-curvature="0"
           style="color:#000000;fill:#cfcccd;fill-opacity:1;fill-rule:nonzero;stroke:none;stroke-width:0.92180866;marker:none;visibility:visible;display:inline;overflow:visible;enable-background:accumulate"
           id="path3017"
           d="m -28.936939,64.446424 c 0.890561,0 1.612676,0.722115 1.612676,1.612958 0,0.890844 -0.722115,1.612959 -1.612676,1.612959 -0.890843,0 -1.612958,-0.722115 -1.612958,-1.612959 0,-0.890843 0.721832,-1.612958 1.612958,-1.612958 z m -1.658744,3.255875 c 0.653154,0 1.182798,0.529645 1.182798,1.182799 0,0.653153 -0.529644,1.182798 -1.182798,1.182798 -0.653436,0 -1.182798,-0.529645 -1.182798,-1.182798 0,-0.653154 0.529362,-1.182799 1.182798,-1.182799 z m -1.136447,2.702772 c 0.38183,0 0.691025,0.309478 0.691025,0.691309 0,0.38183 -0.309478,0.691307 -0.691025,0.691307 -0.382113,0 -0.691309,-0.309477 -0.691309,-0.691307 0,-0.381831 0.309196,-0.691309 0.691309,-0.691309 z m 5.07176,14.365136 c 0,0.290542 -0.526536,0.526253 -0.526536,0.526253 l -6.212447,0 c 0,0 -0.526536,-0.235711 -0.526536,-0.526253 l 0,-6.950107 c 0,-0.290541 0.235711,-0.526253 0.526536,-0.526253 l 0.328696,0 0.08733,-4.373386 c 0.0025,-0.117574 0.09864,-0.211689 0.216211,-0.211689 l 1.310264,0 c 0.117572,0 0.213666,0.09412 0.21621,0.211689 l 0.08733,4.373386 3.966967,0 c 0.290824,0 0.526536,0.235712 0.526536,0.526253 l 0,6.950107 z" />
      </g>
      <polygon
         style="color:#000000;fill:#cfcccd;fill-opacity:1;fill-rule:nonzero;stroke:none;marker:none;visibility:visible;display:inline;overflow:visible;enable-background:accumulate"
         id="polygon4"
         transform="matrix(0.41173041,0,0,0.41173041,-0.27998829,20.418917)"
         points="77.784,53.021 77.784,61.75 75.615,61.75 75.615,50.78 59.048,50.78 59.048,45.401 44.426,45.401 44.426,61.75 42.826,61.75 42.826,33.979 28.202,33.979 28.202,61.75 23.632,61.75 23.632,45.296 14.949,39.127 6.269,45.296 6.269,61.75 6.269,66.318 23.632,66.318 28.202,66.318 42.826,66.318 44.426,66.318 46.596,66.318 59.048,66.318 75.615,66.318 77.784,66.318 94.233,66.318 94.233,61.75 94.233,53.021 86.011,46.987 " />
      <path
         inkscape:connector-curvature="0"
         style="color:#000000;fill:#cfcccd;fill-opacity:1;fill-rule:nonzero;stroke:none;stroke-width:0.92180866;marker:none;visibility:visible;display:inline;overflow:visible;enable-background:accumulate"
         id="rect3053"
         d="m 0.42671555,45.88509 47.51137745,0 0,1.848197 -47.51137745,0 z" />
    </g>
  </g>
</svg>
