<?xml version="1.0" encoding="UTF-8" standalone="no"?>
<!-- Created with Inkscape (http://www.inkscape.org/) -->

<svg
   xmlns:dc="http://purl.org/dc/elements/1.1/"
   xmlns:cc="http://creativecommons.org/ns#"
   xmlns:rdf="http://www.w3.org/1999/02/22-rdf-syntax-ns#"
   xmlns:svg="http://www.w3.org/2000/svg"
   xmlns="http://www.w3.org/2000/svg"
   xmlns:sodipodi="http://sodipodi.sourceforge.net/DTD/sodipodi-0.dtd"
   xmlns:inkscape="http://www.inkscape.org/namespaces/inkscape"
   version="1.1"
   width="48"
   height="48"
   id="svg28083"
   inkscape:version="0.48.4 r9939"
   sodipodi:docname="activités-intersaisons.svg">
  <sodipodi:namedview
     pagecolor="#ffffff"
     bordercolor="#666666"
     borderopacity="1"
     objecttolerance="10"
     gridtolerance="10"
     guidetolerance="10"
     inkscape:pageopacity="0"
     inkscape:pageshadow="2"
     inkscape:window-width="1855"
     inkscape:window-height="1056"
     id="namedview36"
     showgrid="false"
     inkscape:zoom="4.9166667"
     inkscape:cx="24"
     inkscape:cy="24"
     inkscape:window-x="65"
     inkscape:window-y="24"
     inkscape:window-maximized="1"
     inkscape:current-layer="svg28083" />
  <defs
     id="defs28085">
    <clipPath
       id="clipPath4901">
      <path
         d="m 315.748,1648.19 0.773,0 0,-0.63 -0.773,0 0,0.63 z"
         id="path4903" />
    </clipPath>
    <clipPath
       id="clipPath4905">
      <path
         d="m 315.759,1648.18 0.762,0 0,-0.62 -0.762,0 0,0.62 z"
         id="path4907" />
    </clipPath>
    <clipPath
       id="clipPath4909">
      <path
         d="m 315.748,1648.19 0.011,0 0,-0.01 -0.011,0 0,0.01 z"
         id="path4911" />
    </clipPath>
    <clipPath
       id="clipPath4857">
      <path
         d="m 327.146,1644.07 0.45,0 0,-0.02 -0.45,0 0,0.02 z"
         id="path4859" />
    </clipPath>
    <clipPath
       id="clipPath4861">
      <path
         d="m 327.146,1644.07 0.446,0 0,-0.02 -0.446,0 0,0.02 z"
         id="path4863" />
    </clipPath>
    <clipPath
       id="clipPath4865">
      <path
         d="m 327.592,1644.05 0.004,0 0,0 -0.004,0 z"
         id="path4867" />
    </clipPath>
  </defs>
  <metadata
     id="metadata28088">
    <rdf:RDF>
      <cc:Work
         rdf:about="">
        <dc:format>image/svg+xml</dc:format>
        <dc:type
           rdf:resource="http://purl.org/dc/dcmitype/StillImage" />
        <dc:title />
      </cc:Work>
    </rdf:RDF>
  </metadata>
  <g
     id="g3013">
    <g
       style="color:#000000;fill:#cfcccd;fill-opacity:1;fill-rule:nonzero;stroke:none;stroke-width:3.0211916;marker:none;visibility:visible;display:inline;overflow:visible;enable-background:accumulate"
       id="g4"
       transform="matrix(0.16498639,0,0,0.16498639,30.01801,35.854716)">
      <path
         style="color:#000000;fill:#cfcccd;fill-opacity:1;fill-rule:nonzero;stroke:none;stroke-width:3.0211916;marker:none;visibility:visible;display:inline;overflow:visible;enable-background:accumulate"
         id="path10-7"
         d="M 69.212,22.768 C 57.323,21.083 46.023,29.389 42.487,37.405 37.826,34.275 31.639,32.446 25.543,33.86 14.29,36.47 7.612,49.134 9.305,56.431 c 1.401,6.04 8.416,7.865 17.174,6.836 l 2.582,11.129 c 0.492,2.123 2.612,3.445 4.737,2.953 l 3.479,-0.807 c 2.124,-0.493 3.446,-2.613 2.953,-4.737 L 37.649,60.676 c 5.444,-1.918 9.664,-4.61 11.548,-7.934 2.404,1.276 5.258,2.323 8.418,3.136 l -1.91,13.486 c -0.366,2.574 1.425,4.955 3.999,5.32 l 4.217,0.598 c 2.574,0.365 4.955,-1.426 5.319,-4 L 71.152,57.796 C 81.663,58.11 89.807,55.215 90.843,47.894 92.096,39.052 82.851,24.702 69.212,22.768 z M 37.136,58.465 36.712,56.634 c -0.717,-3.084 -3.796,-5.006 -6.881,-4.289 -3.085,0.715 -5.006,3.796 -4.289,6.881 l 0.424,1.83 c -4.348,0.191 -7.589,-0.759 -8.021,-2.625 -0.608,-2.623 4.549,-6.059 11.519,-7.675 6.969,-1.616 13.111,-0.802 13.72,1.82 0.431,1.868 -2.06,4.148 -6.048,5.889 z m 43.651,-7.3 c -0.32,2.264 -4.072,3.729 -9.257,3.951 l 0.315,-2.219 c 0.528,-3.737 -2.07,-7.198 -5.809,-7.728 -3.738,-0.53 -7.198,2.071 -7.728,5.81 l -0.315,2.219 c -4.917,-1.656 -8.114,-4.105 -7.794,-6.367 0.451,-3.178 7.664,-4.784 16.109,-3.586 8.448,1.196 14.929,4.742 14.479,7.92 z" />
    </g>
    <g
       style="color:#000000;fill:#cfcccd;fill-opacity:1;fill-rule:nonzero;stroke:none;stroke-width:1.61634803;marker:none;visibility:visible;display:inline;overflow:visible;enable-background:accumulate"
       id="g2995"
       transform="matrix(0.27536828,-0.13882672,0.13882672,0.27536828,8.5779667,19.286247)">
      <path
         style="color:#000000;fill:#cfcccd;fill-opacity:1;fill-rule:nonzero;stroke:none;stroke-width:1.61634803;marker:none;visibility:visible;display:inline;overflow:visible;enable-background:accumulate"
         id="path4"
         d="m 79.87,46.693 c 0.229,0.045 0.456,0.066 0.68,0.066 1.639,0 3.103,-1.157 3.431,-2.825 0.373,-1.897 -0.862,-3.737 -2.759,-4.11 L 63.66,36.37 61.729,21.86 c 1.744,0.38 3.627,0.152 5.302,-0.796 3.613,-2.05 4.886,-6.639 2.835,-10.251 C 67.82,7.201 63.232,5.93 59.619,7.979 c -2.769,1.567 -4.155,4.629 -3.734,7.599 -1.226,-0.413 -2.567,-0.534 -3.93,-0.296 0,0 -0.539,0.094 -1.481,0.259 -0.647,0.137 -1.517,0.31 -2.35,0.525 -0.783,0.217 -1.679,0.454 -2.59,0.766 -0.936,0.293 -1.893,0.657 -2.906,1.045 -1.003,0.396 -2.037,0.836 -3.084,1.313 -2.092,0.96 -4.234,2.074 -6.32,3.292 -2.089,1.222 -4.111,2.524 -6.025,3.95 -0.24,0.182 -0.479,0.361 -0.715,0.54 -0.583,0.434 -0.345,0.295 -0.842,0.714 -0.436,0.383 -0.736,0.695 -1.035,1.013 -0.302,0.33 -0.59,0.668 -0.861,1.021 -1.09,1.408 -1.909,3.005 -2.384,4.631 -0.48,1.626 -0.619,3.28 -0.457,4.82 0.153,1.537 0.629,2.977 1.272,4.146 0.642,1.177 1.453,2.063 2.067,2.605 0.307,0.274 0.566,0.468 0.745,0.596 0.179,0.125 0.271,0.189 0.271,0.189 0.357,0.251 0.732,0.459 1.118,0.627 0.435,0.334 0.914,0.622 1.443,0.843 l 16.081,6.696 -5.297,5.611 c -3.372,-5.878 -9.693,-9.746 -16.747,-9.746 -1.259,0 -2.528,0.125 -3.773,0.371 C 7.628,53.18 0.803,63.371 2.871,73.828 c 1.785,9.031 9.754,15.586 18.946,15.586 1.259,0 2.527,-0.125 3.771,-0.371 5.066,-1.002 9.438,-3.918 12.312,-8.209 2.594,-3.873 3.67,-8.448 3.121,-13.027 L 54.337,56.44 c 0.294,-0.254 0.572,-0.564 0.794,-0.907 1.242,-1.926 0.688,-4.494 -1.238,-5.736 L 53.366,49.456 35.75,38.096 c 1.365,-0.868 2.961,-1.756 4.585,-2.563 1.73,-0.862 3.506,-1.64 5.165,-2.271 0.831,-0.313 1.63,-0.592 2.383,-0.833 0.75,-0.227 1.459,-0.448 2.094,-0.596 0.644,-0.176 1.205,-0.274 1.706,-0.382 0.39,-0.062 0.729,-0.117 1.01,-0.162 0.939,-0.102 1.477,-0.16 1.477,-0.16 l 0.048,-0.005 c 0.165,-0.019 0.331,-0.042 0.497,-0.071 0.393,-0.068 0.769,-0.174 1.136,-0.295 l 1.201,9.025 c 0.198,1.487 1.322,2.683 2.794,2.973 L 79.87,46.693 z M 35.409,79.165 c -2.428,3.625 -6.122,6.088 -10.402,6.935 -1.053,0.208 -2.126,0.314 -3.189,0.314 -7.765,0 -14.495,-5.538 -16.003,-13.168 -1.748,-8.835 4.019,-17.444 12.853,-19.192 1.054,-0.209 2.128,-0.314 3.191,-0.314 6.275,0 11.871,3.62 14.585,9.036 l -1.742,1.846 c -2.156,-5.072 -7.177,-8.531 -12.853,-8.531 -0.909,0 -1.826,0.09 -2.727,0.268 -7.564,1.5 -12.501,8.872 -11.003,16.433 1.292,6.532 7.057,11.272 13.706,11.272 0.909,0 1.826,-0.09 2.726,-0.268 3.665,-0.726 6.827,-2.834 8.906,-5.938 1.116,-1.667 1.834,-3.516 2.16,-5.437 l 2.553,-2.179 c -0.025,3.155 -0.964,6.239 -2.761,8.923 z m -4.951,-6.216 c 0.446,0.522 1.037,0.839 1.663,0.964 -0.297,0.79 -0.676,1.556 -1.157,2.274 -1.633,2.438 -4.117,4.095 -6.995,4.664 -0.708,0.14 -1.43,0.211 -2.144,0.211 -5.222,0 -9.748,-3.724 -10.763,-8.854 -1.177,-5.939 2.701,-11.729 8.643,-12.907 0.708,-0.14 1.429,-0.211 2.144,-0.211 4.917,0 9.217,3.304 10.549,7.972 l -1.841,1.95 c -1.014,1.081 -1.083,2.784 -0.099,3.937 z" />
      <path
         style="color:#000000;fill:#cfcccd;fill-opacity:1;fill-rule:nonzero;stroke:none;stroke-width:1.61634803;marker:none;visibility:visible;display:inline;overflow:visible;enable-background:accumulate"
         id="path6-5"
         d="m 97.129,66.323 c -1.787,-9.03 -9.755,-15.584 -18.945,-15.584 -1.259,0 -2.528,0.125 -3.773,0.371 -10.458,2.07 -17.283,12.261 -15.215,22.718 1.785,9.031 9.754,15.586 18.946,15.586 1.259,0 2.527,-0.125 3.771,-0.371 5.066,-1.002 9.438,-3.918 12.312,-8.209 2.874,-4.291 3.906,-9.445 2.904,-14.511 z m -5.395,12.842 c -2.428,3.625 -6.122,6.088 -10.402,6.935 -1.053,0.208 -2.126,0.314 -3.189,0.314 -7.765,0 -14.495,-5.538 -16.003,-13.168 -1.748,-8.835 4.019,-17.444 12.853,-19.192 1.054,-0.209 2.128,-0.314 3.191,-0.314 7.763,0 14.492,5.537 16.002,13.166 0.847,4.28 -0.024,8.633 -2.452,12.259 z" />
      <path
         style="color:#000000;fill:#cfcccd;fill-opacity:1;fill-rule:nonzero;stroke:none;stroke-width:1.61634803;marker:none;visibility:visible;display:inline;overflow:visible;enable-background:accumulate"
         id="path8-3"
         d="m 78.174,56.09 c -0.909,0 -1.826,0.09 -2.727,0.268 -7.564,1.5 -12.501,8.872 -11.003,16.433 1.292,6.532 7.057,11.272 13.706,11.272 0.909,0 1.826,-0.09 2.726,-0.268 3.665,-0.726 6.827,-2.834 8.906,-5.938 2.078,-3.104 2.824,-6.831 2.099,-10.495 C 90.589,60.83 84.824,56.09 78.174,56.09 z m 9.115,20.098 c -1.633,2.438 -4.117,4.095 -6.995,4.664 -0.708,0.14 -1.43,0.211 -2.144,0.211 -5.222,0 -9.748,-3.724 -10.763,-8.854 -1.177,-5.939 2.701,-11.729 8.643,-12.907 0.708,-0.14 1.429,-0.211 2.144,-0.211 5.222,0 9.749,3.724 10.764,8.854 0.57,2.876 -0.016,5.804 -1.649,8.243 z" />
    </g>
    <g
       style="color:#000000;fill:#cfcccd;fill-opacity:1;fill-rule:nonzero;stroke:none;stroke-width:1.46670091;marker:none;visibility:visible;display:inline;overflow:visible;enable-background:accumulate"
       id="g2999"
       transform="matrix(0.33984808,0,0,0.33984808,-0.88817364,-2.9521593)">
      <path
         style="color:#000000;fill:#cfcccd;fill-opacity:1;fill-rule:nonzero;stroke:none;stroke-width:1.46670091;marker:none;visibility:visible;display:inline;overflow:visible;enable-background:accumulate"
         id="path4-5"
         d="m 33.8,25.9 c -0.3,-0.6 -0.1,-1.3 0.4,-1.6 L 37,22.7 c 0.6,-0.3 1.3,-0.1 1.6,0.4 0.3,0.6 0.1,1.3 -0.4,1.6 l -2.8,1.6 c -0.5,0.4 -1.2,0.2 -1.6,-0.4 z" />
      <path
         style="color:#000000;fill:#cfcccd;fill-opacity:1;fill-rule:nonzero;stroke:none;stroke-width:1.46670091;marker:none;visibility:visible;display:inline;overflow:visible;enable-background:accumulate"
         id="path6-6"
         d="m 13.9,38.8 -2.8,1.6 C 10.5,40.7 9.8,40.5 9.5,40 9.2,39.4 9.4,38.7 9.9,38.4 l 2.8,-1.6 c 0.6,-0.3 1.3,-0.1 1.6,0.4 0.4,0.5 0.2,1.2 -0.4,1.6 z" />
      <path
         style="color:#000000;fill:#cfcccd;fill-opacity:1;fill-rule:nonzero;stroke:none;stroke-width:1.46670091;marker:none;visibility:visible;display:inline;overflow:visible;enable-background:accumulate"
         id="path8-2"
         d="m 9.6,24.3 c -0.2,-0.4 -0.2,-0.8 0,-1.2 0.3,-0.6 1,-0.8 1.6,-0.4 l 2.8,1.6 c 0.6,0.3 0.8,1 0.4,1.6 -0.3,0.6 -1,0.8 -1.6,0.4 L 10,24.7 C 9.8,24.6 9.7,24.5 9.6,24.3 z" />
      <path
         style="color:#000000;fill:#cfcccd;fill-opacity:1;fill-rule:nonzero;stroke:none;stroke-width:1.46670091;marker:none;visibility:visible;display:inline;overflow:visible;enable-background:accumulate"
         id="path10-9"
         d="M 23.1,19.7 C 23,19.5 22.9,19.3 22.9,19.1 v -3.2 c 0,-0.6 0.5,-1.2 1.2,-1.2 0.6,0 1.2,0.5 1.2,1.2 v 3.2 c 0,0.6 -0.5,1.2 -1.2,1.2 -0.4,0 -0.8,-0.3 -1,-0.6 z" />
      <path
         style="color:#000000;fill:#cfcccd;fill-opacity:1;fill-rule:nonzero;stroke:none;stroke-width:1.46670091;marker:none;visibility:visible;display:inline;overflow:visible;enable-background:accumulate"
         id="path12"
         d="M 54.8,41.9 C 54.1,33.8 47.4,27.7 39.2,27.7 c -2.1,0 -4.1,0.4 -6,1.2 -0.2,-0.7 -0.5,-1.4 -0.9,-2 -2.6,-4.5 -8.4,-6.1 -13,-3.5 -4.5,2.6 -6.1,8.4 -3.5,13 0.2,0.3 0.4,0.6 0.6,0.9 -2.3,1.9 -3.8,4.7 -3.8,7.9 0,5.6 4.6,10.2 10.2,10.2 h 31 c 3.7,0 6.7,-3 6.7,-6.7 0.1,-3.6 -2.4,-6.4 -5.7,-6.8 z M 18,35 c -1.9,-3.3 -0.8,-7.6 2.6,-9.6 3.3,-1.9 7.6,-0.8 9.6,2.6 0.4,0.6 0.6,1.3 0.8,2 -0.7,0.5 -1.5,1 -2.1,1.6 -0.6,-0.2 -1.2,-0.3 -1.8,-0.3 -2.6,0 -4.9,1.5 -6.1,3.8 -0.8,0.2 -1.6,0.4 -2.3,0.8 C 18.4,35.6 18.2,35.3 18,35 z m 35.9,17.9 h -31 c -4.3,0 -7.8,-3.5 -7.8,-7.8 0,-3.9 2.9,-7.2 6.8,-7.7 l 0.7,-0.1 0.2,-0.7 c 0.6,-1.7 2.3,-2.9 4.1,-2.9 0.6,0 1.2,0.1 1.7,0.3 l 0.7,0.3 0.6,-0.5 c 2.5,-2.4 5.8,-3.8 9.3,-3.8 7.3,0 13.2,5.7 13.3,13 v 1.1 h 1.3 c 2.4,0 4.4,2 4.4,4.4 0,2.4 -1.9,4.4 -4.3,4.4 z" />
    </g>
    <g
       style="color:#000000;fill:#cfcccd;fill-opacity:1;fill-rule:nonzero;stroke:none;stroke-width:2.37868214;marker:none;visibility:visible;display:inline;overflow:visible;enable-background:accumulate"
       id="g4-1"
       transform="matrix(0.20955111,0,0,0.20955111,-2.6227937,29.332145)">
      <path
         style="color:#000000;fill:#cfcccd;fill-opacity:1;fill-rule:nonzero;stroke:none;stroke-width:2.37868214;marker:none;visibility:visible;display:inline;overflow:visible;enable-background:accumulate"
         id="path6-2"
         d="m 66.065788,27.498686 c 0.315768,-0.01274 0.702345,0.0694 1.197737,0.240986 5.822241,3.367268 -4.258247,7.290627 -0.111486,10.677069 2.316759,2.134195 6.833156,-5.070995 9.419999,-1.451304 0.406663,0.703223 0.604117,1.187972 0.609652,1.55741 0.01662,1.108307 -1.686741,1.173658 -4.593101,2.951164 -2.652994,2.027139 -5.061402,2.016658 -6.878862,0.963941 -2.531291,3.186965 -4.416856,6.493458 -5.860964,9.867791 2.850414,7.380029 3.589281,15.168374 4.758557,22.873784 0.66598,-5.442314 1.486031,-10.841345 3.875533,-15.809689 -1.191439,-1.717334 -2.484417,-3.42359 -3.875533,-5.118232 1.690738,1.159749 3.213651,2.398085 4.611076,3.693903 1.238683,-2.232989 2.828028,-4.370883 4.924003,-6.368115 -1.135055,2.705197 -2.184659,5.431086 -3.084245,8.191688 2.209764,2.354035 4.016367,4.894314 5.479708,7.594621 0.829011,-1.277224 1.756552,-2.493222 2.789316,-3.643548 -2.068738,-1.90699 -2.965045,-5.323133 -1.814586,-8.053211 2.19308,-5.204241 1.742394,-6.810253 4.384487,-5.895139 5.822252,3.367268 -4.258237,7.292426 -0.111487,10.678868 2.31676,2.134195 6.833145,-5.072794 9.419988,-1.453103 0.406663,0.703223 0.604129,1.189772 0.609664,1.559208 0.01662,1.108309 -1.686741,1.171861 -4.593102,2.949368 -2.440473,1.86475 -4.679977,2.016686 -6.438259,1.21032 -1.361341,1.458792 -2.440888,2.960515 -3.307241,4.494188 1.910366,4.027878 3.133825,8.373981 3.873736,12.944845 l 0.395649,0 c 1.339695,-3.391642 2.582262,-6.831506 6.463431,-8.952409 -2.754916,2.731625 -4.01511,5.808475 -4.98335,8.952409 l 1.26427,0 0,7.907543 -58.481996,0 0,-7.907543 1.764221,0 C 27.276548,71.462676 26.055806,60.837481 16.473292,50.996512 c 6.511856,5.47697 13.363984,10.535119 14.766619,22.323475 0.37306,-6.115862 1.51621,-11.205601 3.368396,-15.349299 -2.576401,-6.614803 -6.773685,-13.553882 -14.297241,-21.158115 6.403534,4.975829 12.859993,9.917746 17.154886,16.225118 2.119486,-2.851113 4.744816,-5.028484 7.842803,-6.574932 -3.064193,2.719886 -5.075414,5.702431 -6.436463,8.848103 1.842441,3.257021 3.11045,6.876646 3.528452,11.033151 0.337796,-7.639376 4.0259,-13.883339 8.022642,-19.998149 -3.06123,6.937191 -5.4778,13.87563 -5.463519,20.812822 1.499201,4.703385 4.13678,7.084054 6.742182,9.53329 0.614379,-3.858402 1.156757,-7.737724 1.861336,-11.570872 -0.579597,-0.753243 -1.230678,-1.473374 -1.976438,-2.149081 0.757033,0.349995 1.473827,0.743998 2.15987,1.172553 0.775557,-4.037163 1.767173,-8.013506 3.247905,-11.85322 -1.518119,-3.789052 -3.659037,-7.489661 -6.85908,-11.038547 -2.005315,1.059743 -4.586713,1.25149 -6.663052,0.208614 -5.046649,-2.53476 -6.678433,-2.192251 -5.58941,-4.767545 3.747497,-5.585097 6.991439,4.733898 10.646501,0.821867 2.283729,-2.169495 -4.605788,-7.155457 -0.82187,-9.495524 0.72874,-0.358933 1.226187,-0.522632 1.595182,-0.503551 1.106954,0.05725 1.058216,1.760061 2.638242,4.778335 2.040793,3.075718 1.637565,5.701581 0.116898,7.468733 2.751132,2.95659 4.794261,6.049802 6.355526,9.236556 1.386557,-2.904731 3.11247,-5.715469 5.323244,-8.389512 -1.364013,-1.959847 -1.813138,-4.70901 -0.857831,-6.975973 1.78187,-4.228446 1.818448,-6.080895 3.18675,-6.136123 z m -21.701225,2.541133 c 1.281078,-0.0415 1.33745,2.501967 1.94406,3.283868 0.808824,1.042536 2.119709,2.597298 1.028687,3.452918 -1.091021,0.85562 -3.289232,-1.289304 -4.069764,-2.384672 -0.780542,-1.095367 -3.717081,-0.292234 -0.658221,-3.289264 0.764723,-0.749257 1.328209,-1.049016 1.755238,-1.06285 z m 26.83565,0.811075 c 0.36968,0.0091 0.958506,0.340495 1.956645,1.231902 0.798517,0.713124 1.135717,1.25634 1.177954,1.681498 0.126711,1.275477 -2.40742,1.500736 -3.147196,2.158073 -0.986361,0.876451 -2.451004,2.286905 -3.377378,1.25528 -0.926374,-1.031624 1.068556,-3.36729 2.109515,-4.219034 0.71566,-0.585574 0.467145,-2.127698 1.28046,-2.107719 z m 14.633531,22.032134 c 0.369691,0.0091 0.958506,0.342294 1.956656,1.233699 0.798517,0.713124 1.135706,1.254543 1.177943,1.679701 0.126722,1.275477 -2.407409,1.500736 -3.147185,2.158073 -0.986361,0.876451 -2.451016,2.288703 -3.377389,1.257078 -0.926374,-1.031624 1.068556,-3.36729 2.109515,-4.219033 0.71566,-0.585574 0.467156,-2.129497 1.28046,-2.109518 z m -27.472281,3.345015 c -1.043946,3.186799 -1.751309,6.415051 -2.271368,9.648387 2.814656,2.46061 4.844952,5.788409 6.076775,10.000874 C 60.865651,69.33204 60.277353,62.685496 58.361463,56.228043 z m 11.962932,5.950887 c -1.159901,4.003036 -1.975989,8.086216 -2.228221,12.302818 0.270667,-1.699959 1.32355,-3.064658 2.674214,-4.301759 0.118335,4.239604 -0.337537,8.279569 -1.773214,11.97551 l 2.381081,0 c 0.549901,-4.181173 1.621769,-8.038783 3.307241,-11.515121 -1.159385,-2.854324 -2.62387,-5.672788 -4.361101,-8.461448 z m -33.782852,1.708476 c -0.914338,6.024765 -0.831694,12.29823 -1.965649,18.268093 l 5.429354,0 C 38.886461,76.0728 38.220021,70.082042 36.541543,63.887406 z m 19.138521,4.798117 c -0.594866,4.546434 -0.913552,9.069035 -1.334407,13.469976 l 4.528354,0 C 58.096746,77.531433 57.547586,72.800804 55.680064,68.685523 z m 19.963972,4.539149 c -1.060102,2.932113 -1.650308,5.935734 -2.294743,8.930827 l 4.287371,0 c -0.322829,-3.015553 -0.995399,-5.991912 -1.992628,-8.930827 z" />
    </g>
  </g>
</svg>
