<?xml version="1.0" encoding="UTF-8" standalone="no"?>
<!-- Created with Inkscape (http://www.inkscape.org/) -->

<svg
   xmlns:dc="http://purl.org/dc/elements/1.1/"
   xmlns:cc="http://creativecommons.org/ns#"
   xmlns:rdf="http://www.w3.org/1999/02/22-rdf-syntax-ns#"
   xmlns:svg="http://www.w3.org/2000/svg"
   xmlns="http://www.w3.org/2000/svg"
   xmlns:sodipodi="http://sodipodi.sourceforge.net/DTD/sodipodi-0.dtd"
   xmlns:inkscape="http://www.inkscape.org/namespaces/inkscape"
   width="48px"
   height="48px"
   id="svg3210"
   version="1.1"
   inkscape:version="0.92.1 r"
   sodipodi:docname="MIG.svg">
  <defs
     id="defs3212" />
  <sodipodi:namedview
     id="base"
     pagecolor="#ffffff"
     bordercolor="#666666"
     borderopacity="1.0"
     inkscape:pageopacity="0.0"
     inkscape:pageshadow="2"
     inkscape:zoom="7"
     inkscape:cx="24"
     inkscape:cy="33.476602"
     inkscape:current-layer="g3003"
     showgrid="true"
     inkscape:grid-bbox="true"
     inkscape:document-units="px"
     inkscape:window-width="1080"
     inkscape:window-height="926"
     inkscape:window-x="0"
     inkscape:window-y="112"
     inkscape:window-maximized="0" />
  <metadata
     id="metadata3215">
    <rdf:RDF>
      <cc:Work
         rdf:about="">
        <dc:format>image/svg+xml</dc:format>
        <dc:type
           rdf:resource="http://purl.org/dc/dcmitype/StillImage" />
        <dc:title></dc:title>
      </cc:Work>
    </rdf:RDF>
  </metadata>
  <g
     id="layer1"
     inkscape:label="Layer 1"
     inkscape:groupmode="layer">
    <g
       id="g3342"
       transform="matrix(1.222754,0,0,1.222754,-0.44219554,-7.9761966)">
      <g
         id="g4164"
         style="fill-rule:evenodd;fill:#cfcccd;fill-opacity:1">
        <g
           id="g3009">
          <g
             id="g3003">
            <g
               id="g3265"
               transform="matrix(1.6837725,0,0,1.7374507,-18.868598,7.9840813)"
               style="fill:#cfcccd;fill-opacity:1;fill-rule:evenodd">
              <g
                 id="g3001"
                 transform="matrix(0.35267857,0,0,0.35267857,5.528616,6.4285717)"
                 style="fill:#cfcccd;fill-opacity:1;fill-rule:evenodd">
                <g
                   id="g3007"
                   style="fill:#cfcccd;fill-opacity:1;fill-rule:evenodd">
                  <path
                     id="path3007"
                     d="m 61.409252,24.931709 -11.789,-8.504 -11.788998,8.504 v 18.005 h 23.577998 z m -9.247,16.005 h -5.082998 v -10.583 h 5.082998 z m 7.247,0 h -5.248 v -12.583 h -9.082998 v 12.583 h -5.247 v -14.982 l 9.788998,-7.061 9.789,7.061 z"
                     inkscape:connector-curvature="0"
                     style="fill:#cfcccd;fill-opacity:1;fill-rule:evenodd" />
                  <path
                     id="path3007-57"
                     d="M 40.264823,24.81912 28.475824,16.315119 16.686823,24.81912 v 18.004999 h 23.578 z m -9.247,16.005 h -5.083 v -10.583 h 5.083 z m 7.247,0 h -5.248 V 28.241119 h -9.083 V 40.82412 h -5.247 V 25.842119 l 9.789001,-7.061 9.788999,7.061 z"
                     inkscape:connector-curvature="0"
                     style="fill:#cfcccd;fill-opacity:1;fill-rule:evenodd" />
                  <path
                     id="path3007-6"
                     d="m 82.796469,24.819119 -11.789,-8.504 -11.789,8.504 v 18.005 h 23.578 z m -9.247,16.005 h -5.083 v -10.583 h 5.083 z m 7.247,0 h -5.248 v -12.583 h -9.083 v 12.583 h -5.247 v -14.982 l 9.789,-7.061 9.789,7.061 z"
                     inkscape:connector-curvature="0"
                     style="fill:#cfcccd;fill-opacity:1;fill-rule:evenodd" />
                </g>
              </g>
            </g>
          </g>
        </g>
      </g>
    </g>
  </g>
</svg>
