<?xml version="1.0" encoding="UTF-8" standalone="no"?>
<!-- Created with Inkscape (http://www.inkscape.org/) -->

<svg
   xmlns:dc="http://purl.org/dc/elements/1.1/"
   xmlns:cc="http://creativecommons.org/ns#"
   xmlns:rdf="http://www.w3.org/1999/02/22-rdf-syntax-ns#"
   xmlns:svg="http://www.w3.org/2000/svg"
   xmlns="http://www.w3.org/2000/svg"
   xmlns:sodipodi="http://sodipodi.sourceforge.net/DTD/sodipodi-0.dtd"
   xmlns:inkscape="http://www.inkscape.org/namespaces/inkscape"
   version="1.1"
   width="48"
   height="48"
   id="svg28083"
   inkscape:version="0.48.4 r9943 custom"
   sodipodi:docname="moins-15ans.svg">
  <sodipodi:namedview
     pagecolor="#ffffff"
     bordercolor="#666666"
     borderopacity="1"
     objecttolerance="10"
     gridtolerance="10"
     guidetolerance="10"
     inkscape:pageopacity="0"
     inkscape:pageshadow="2"
     inkscape:window-width="640"
     inkscape:window-height="480"
     id="namedview3062"
     showgrid="false"
     inkscape:zoom="4.9166667"
     inkscape:cx="24"
     inkscape:cy="24"
     inkscape:window-x="1513"
     inkscape:window-y="308"
     inkscape:window-maximized="0"
     inkscape:current-layer="svg28083" />
  <defs
     id="defs28085">
    <clipPath
       id="clipPath4901">
      <path
         d="m 315.748,1648.19 0.773,0 0,-0.63 -0.773,0 0,0.63 z"
         id="path4903" />
    </clipPath>
    <clipPath
       id="clipPath4905">
      <path
         d="m 315.759,1648.18 0.762,0 0,-0.62 -0.762,0 0,0.62 z"
         id="path4907" />
    </clipPath>
    <clipPath
       id="clipPath4909">
      <path
         d="m 315.748,1648.19 0.011,0 0,-0.01 -0.011,0 0,0.01 z"
         id="path4911" />
    </clipPath>
    <clipPath
       id="clipPath4857">
      <path
         d="m 327.146,1644.07 0.45,0 0,-0.02 -0.45,0 0,0.02 z"
         id="path4859" />
    </clipPath>
    <clipPath
       id="clipPath4861">
      <path
         d="m 327.146,1644.07 0.446,0 0,-0.02 -0.446,0 0,0.02 z"
         id="path4863" />
    </clipPath>
    <clipPath
       id="clipPath4865">
      <path
         d="m 327.592,1644.05 0.004,0 0,0 -0.004,0 z"
         id="path4867" />
    </clipPath>
  </defs>
  <metadata
     id="metadata28088">
    <rdf:RDF>
      <cc:Work
         rdf:about="">
        <dc:format>image/svg+xml</dc:format>
        <dc:type
           rdf:resource="http://purl.org/dc/dcmitype/StillImage" />
        <dc:title />
      </cc:Work>
    </rdf:RDF>
  </metadata>
  <g
     id="g3064">
    <g
       style="color:#000000;fill:#cfcccd;fill-opacity:1;fill-rule:nonzero;stroke:none;stroke-width:7.59637547;marker:none;visibility:visible;display:inline;overflow:visible;enable-background:accumulate"
       id="g4-3"
       transform="matrix(0.57062155,0,0,0.57062155,3.2203357,32.576198)">
      <g
         style="color:#000000;fill:#cfcccd;fill-opacity:1;fill-rule:nonzero;stroke:none;stroke-width:7.59637547;marker:none;visibility:visible;display:inline;overflow:visible;enable-background:accumulate"
         id="g6">
        <path
           style="color:#000000;fill:#cfcccd;fill-opacity:1;fill-rule:nonzero;stroke:none;stroke-width:7.59637547;marker:none;visibility:visible;display:inline;overflow:visible;enable-background:accumulate"
           id="path8"
           d="M 20.582,12.461 17.367,8.845 C 16.595,7.976 15.572,7.384 14.456,7.134 15.39,6.401 16.001,5.276 16.001,4 c 0,-2.206 -1.794,-4 -4,-4 -2.206,0 -4,1.794 -4,4 0,1.276 0.612,2.402 1.545,3.135 C 8.43,7.384 7.407,7.977 6.635,8.845 L 3.44,12.439 C 3.156,12.722 3,13.099 3,13.5 3,14.327 3.673,15 4.5,15 4.901,15 5.278,14.844 5.577,14.544 L 8,11.888 v 3.399 l -2.414,2.3 C 5.208,17.964 5,18.466 5,19 c 0,0.534 0.208,1.036 0.597,1.425 L 8.939,23.56 C 9.222,23.844 9.599,24 10,24 c 0.827,0 1.5,-0.673 1.5,-1.5 0,-0.401 -0.156,-0.778 -0.439,-1.061 L 9.206,19.584 10.714,18 h 2.572 l 1.508,1.584 -1.854,1.856 c -0.284,0.283 -0.44,0.66 -0.44,1.061 0,0.827 0.673,1.5 1.5,1.5 0.4,0 0.777,-0.156 1.049,-0.428 l 3.365,-3.158 C 18.792,20.036 19,19.534 19,19 19,18.466 18.792,17.964 18.405,17.578 L 16,15.286 v -3.399 l 2.439,2.673 c 0.283,0.284 0.66,0.44 1.061,0.44 0.827,0 1.5,-0.673 1.5,-1.5 0.001,-0.401 -0.155,-0.778 -0.418,-1.039 z m -5.581,2.589 c -0.978,0.199 -1.75,0.972 -1.95,1.95 H 10.95 C 10.751,16.022 9.979,15.25 9.001,15.05 V 14 h 6 v 1.05 z" />
      </g>
    </g>
    <g
       id="g3065"
       transform="matrix(1.837763,0,0,1.837763,97.216708,-33.458531)">
      <g
         style="color:#000000;fill:#cfcccd;fill-opacity:1;fill-rule:nonzero;stroke:none;stroke-width:8.32265854;marker:none;visibility:visible;display:inline;overflow:visible;enable-background:accumulate"
         id="g4"
         transform="matrix(-0.08356482,0,0,0.08356482,-37.618041,23.805201)">
        <path
           style="color:#000000;fill:#cfcccd;fill-opacity:1;fill-rule:nonzero;stroke:none;stroke-width:8.32265854;marker:none;visibility:visible;display:inline;overflow:visible;enable-background:accumulate"
           id="path6"
           d="m 101.448,23 c 0,-14.636 -8.506,-23 -19,-23 -10.492,0 -19,8.364 -19,23 0,14.164 7.969,31.819 17.993,32.942 -8.081,11.46 -3.999,25.936 -0.327,38.991 4.829,17.173 7.438,34.346 -3.947,48.448 -0.426,-0.715 -1.004,-1.355 -1.733,-1.86 L 54.268,126.853 c -0.215,-0.149 -0.438,-0.275 -0.662,-0.393 -0.885,-0.789 -2.037,-1.283 -3.316,-1.283 h -25 c -0.219,0 -0.428,0.037 -0.641,0.064 -0.489,-0.051 -0.991,-0.05 -1.501,0.024 v -0.002 c -1.263,0.124 -7.008,1.643 -12.13,8.798 -5.151,7.131 -9.809,19.335 -11.008,40.984 -0.183,3.309 2.351,6.139 5.66,6.322 0.111,0.006 0.223,0.009 0.333,0.009 3.164,0 5.812,-2.473 5.989,-5.671 1.056,-19.334 5.079,-29.212 8.298,-33.967 v 20.438 18.001 45.999 c 0,4.419 3.582,7.999 8.001,7.999 4.418,0 8,-3.581 8,-7.999 v -40.999 h 3 v 40.999 c 0,4.419 3.581,7.999 7.999,7.999 4.418,0 8,-3.581 8,-7.999 v -45.999 -18.001 -20.017 l 13.313,9.225 c 1.041,0.722 2.232,1.068 3.41,1.068 1.902,0 3.772,-0.902 4.939,-2.583 1.01,-1.459 1.278,-3.206 0.897,-4.806 C 87.622,133.687 89.12,119.611 85.87,104.688 82.443,88.955 72.84,70.2 83.523,55.93 93.514,54.739 101.448,37.133 101.448,23 z" />
        <circle
           d="m 55.289001,103.178 c 0,9.66498 -7.835016,17.5 -17.5,17.5 -9.664983,0 -17.5,-7.83502 -17.5,-17.5 0,-9.664982 7.835017,-17.499999 17.5,-17.499999 9.664984,0 17.5,7.835017 17.5,17.499999 z"
           style="color:#000000;fill:#cfcccd;fill-opacity:1;fill-rule:nonzero;stroke:none;stroke-width:8.32265854;marker:none;visibility:visible;display:inline;overflow:visible;enable-background:accumulate"
           id="circle8"
           r="17.5"
           cy="103.178"
           cx="37.789001" />
      </g>
    </g>
    <g
       style="color:#000000;fill:#cfcccd;fill-opacity:1;fill-rule:nonzero;stroke:none;stroke-width:44.43608856;marker:none;visibility:visible;display:inline;overflow:visible;enable-background:accumulate"
       id="g3009"
       transform="matrix(0.34420388,0,0,0.34420388,21.091976,13.431369)">
      <path
         style="color:#000000;fill:#cfcccd;fill-opacity:1;fill-rule:nonzero;stroke:none;stroke-width:44.43608856;marker:none;visibility:visible;display:inline;overflow:visible;enable-background:accumulate"
         id="path3844"
         d="m 55.926695,4.060241 c -2.492,0 -4.639986,1.7555148 -5.174985,4.0855147 -0.366461,-0.038771 -0.725239,-0.038442 -1.089471,0 -0.01,-0.004 -0.07979,0.004 -0.09079,0 -1.022551,-0.3846064 -2.201838,-0.6355245 -3.359201,-0.6355245 -5.163001,0 -9.351289,4.1882878 -9.351289,9.3512888 0,0.177999 0.111579,0.302945 0.181578,0.453946 0.182,0.305 0.326632,1.293518 -0.272368,2.36052 -0.598999,1.067001 -0.585632,2.251622 0.272368,3.177622 0.858,0.926001 0.272312,2.404363 0.726314,1.997363 0.07,-0.103 0.132578,-0.249158 0.181578,-0.363157 1.421001,3.179 4.645607,5.447353 8.352608,5.447353 3.729999,0 6.852819,-2.237354 8.261819,-5.447353 0.037,0.072 0.136579,0.11558 0.181578,0.181579 0.452999,0.406 -0.131686,-1.071363 0.726314,-1.997363 0.858,-0.926001 0.780578,-2.019832 0.181578,-3.086834 -0.49,-0.873 -0.112422,-1.629362 0.181579,-1.997362 1.402,4.876999 5.452774,6.001565 5.265774,5.356563 -3.196001,-2.954998 -0.272367,-11.893386 -0.272367,-11.893386 0.197998,-0.553001 0.272367,-1.1039944 0.272367,-1.7249955 0,-2.5600002 -1.842094,-4.7119864 -4.267093,-5.1749853 -0.295,-0.079 -0.523103,-0.1067884 -0.817103,-0.090789 -0.034,-9.994e-4 -0.05679,0 -0.09079,0 z m -11.984177,19.973627 4.63025,0 c 10e-4,1.295 -1.06452,2.36052 -2.360519,2.36052 -1.296,0 -2.269731,-1.064521 -2.269731,-2.36052 z" />
      <path
         style="color:#000000;fill:#cfcccd;fill-opacity:1;fill-rule:nonzero;stroke:none;stroke-width:44.43608856;marker:none;visibility:visible;display:inline;overflow:visible;enable-background:accumulate"
         id="path6-3"
         d="m 50.565604,8.5466979 c 0.032,0.017 0.062,0.036 0.093,0.053 -0.032,-0.017 -0.061,-0.036 -0.093,-0.053 z" />
      <path
         style="color:#000000;fill:#cfcccd;fill-opacity:1;fill-rule:nonzero;stroke:none;stroke-width:44.43608856;marker:none;visibility:visible;display:inline;overflow:visible;enable-background:accumulate"
         id="path8-6"
         d="m 55.290604,14.471697 c 0.037,0.141 0.069,0.284 0.099,0.427 -0.007,-0.125 -0.024,-0.239 -0.027,-0.367 l 0.071,-0.045 c -0.048,-0.005 -0.096,-0.01 -0.143,-0.015 z" />
      <path
         style="color:#000000;fill:#cfcccd;fill-opacity:1;fill-rule:nonzero;stroke:none;stroke-width:44.43608856;marker:none;visibility:visible;display:inline;overflow:visible;enable-background:accumulate"
         id="path3840"
         d="m 55.389604,14.898697 c -0.03,-0.143 -0.062,-0.286 -0.099,-0.427 0.047,0.005 0.095,0.01 0.143,0.014 l -0.071,0.045 c 0.003,0.13 0.02,0.243 0.027,0.368 z" />
      <path
         style="color:#000000;fill:#cfcccd;fill-opacity:1;fill-rule:nonzero;stroke:none;stroke-width:44.43608856;marker:none;visibility:visible;display:inline;overflow:visible;enable-background:accumulate"
         id="path10"
         d="m 50.658604,8.5996979 c -0.032,-0.017 -0.062,-0.037 -0.093,-0.053 0.032,0.017 0.061,0.036 0.093,0.053 z" />
      <path
         style="color:#000000;fill:#cfcccd;fill-opacity:1;fill-rule:nonzero;stroke:none;stroke-width:44.43608856;marker:none;visibility:visible;display:inline;overflow:visible;enable-background:accumulate"
         id="path12"
         d="m 38.721604,69.052697 0.004,22.015 4.713,-0.002 -0.004,-22.013 h 5.663 l 0.005,22.015 4.713,-0.002 -0.005,-22.013 h 0.874 v -10.657 h 0.133 v -19.542 l 1.353,3.718 3.334,-1.213 -0.005,-0.014 1.047,-0.386 -3,-7.625 c -0.282,-0.774 -1.775,-1.111 -2.729,-0.962 v -0.016 h -5.519 c 0,1.715 -1.359,3.106 -3.035,3.106 -1.676,0 -3.035,-1.391 -3.035,-3.106 h -5.519 v 0.015 c -0.933,-0.127 -2.321,0.259 -2.601,1.026 l -3,7.688 4.266,1.488 1.334,-3.666 v 19.49 h 0.095 v 10.656 h 0.918 z" />
      <path
         style="color:#000000;fill:#cfcccd;fill-opacity:1;fill-rule:nonzero;stroke:none;stroke-width:44.43608856;marker:none;visibility:visible;display:inline;overflow:visible;enable-background:accumulate"
         id="path14"
         d="m 44.517604,93.539697 c -1.288,0 -2.335,1.048 -2.335,2.335 h -0.5 c 0,-1.368 0.974,-2.512 2.264,-2.777 v -1.35 h -5.584 v 4.096 0.718 h 8.74 v -0.688 h -0.25 c 10e-4,-1.286 -1.047,-2.334 -2.335,-2.334 z" />
      <path
         style="color:#000000;fill:#cfcccd;fill-opacity:1;fill-rule:nonzero;stroke:none;stroke-width:44.43608856;marker:none;visibility:visible;display:inline;overflow:visible;enable-background:accumulate"
         id="path16"
         d="m 55.027604,93.539697 c -1.288,0 -2.336,1.048 -2.336,2.335 h -0.5 c 0,-1.368 0.974,-2.512 2.265,-2.777 v -1.35 h -5.584 v 4.096 0.718 h 8.74 v -0.688 h -0.25 c -10e-4,-1.286 -1.048,-2.334 -2.335,-2.334 z" />
      <path
         style="color:#000000;fill:#cfcccd;fill-opacity:1;fill-rule:nonzero;stroke:none;stroke-width:44.43608856;marker:none;visibility:visible;display:inline;overflow:visible;enable-background:accumulate"
         id="path18"
         d="m 43.937604,32.268697 c 0,1.328 1.076,2.404 2.404,2.404 1.328,0 2.404,-1.076 2.404,-2.404 v -1.83 c -0.772,0.187 -1.575,0.297 -2.404,0.297 -0.829,0 -1.631,-0.11 -2.404,-0.297 v 1.83 z" />
      <path
         style="color:#000000;fill:#cfcccd;fill-opacity:1;fill-rule:nonzero;stroke:none;stroke-width:44.43608856;marker:none;visibility:visible;display:inline;overflow:visible;enable-background:accumulate"
         id="path20"
         d="m 25.282604,61.637697 c -0.331,0.908 0.138,1.914 1.047,2.244 0.198,0.072 0.4,0.106 0.599,0.106 0.715,0 1.387,-0.441 1.646,-1.153 l 7.152,-19.65 -3.304,-1.166 -7.14,19.619 z" />
      <path
         style="color:#000000;fill:#cfcccd;fill-opacity:1;fill-rule:nonzero;stroke:none;stroke-width:44.43608856;marker:none;visibility:visible;display:inline;overflow:visible;enable-background:accumulate"
         id="path22"
         d="m 67.249604,61.653697 -7.14,-19.618 -3.304,1.166 7.152,19.65 c 0.259,0.712 0.931,1.153 1.646,1.153 0.199,0 0.401,-0.034 0.599,-0.106 0.909,-0.331 1.378,-1.337 1.047,-2.245 z" />
    </g>
  </g>
</svg>
