<?xml version="1.0" encoding="UTF-8" standalone="no"?>
<!-- Created with Inkscape (http://www.inkscape.org/) -->

<svg
   xmlns:dc="http://purl.org/dc/elements/1.1/"
   xmlns:cc="http://creativecommons.org/ns#"
   xmlns:rdf="http://www.w3.org/1999/02/22-rdf-syntax-ns#"
   xmlns:svg="http://www.w3.org/2000/svg"
   xmlns="http://www.w3.org/2000/svg"
   version="1.1"
   width="48"
   height="48"
   id="svg28083">
  <defs
     id="defs28085">
    <clipPath
       id="clipPath4901">
      <path
         d="m 315.748,1648.19 0.773,0 0,-0.63 -0.773,0 0,0.63 z"
         id="path4903" />
    </clipPath>
    <clipPath
       id="clipPath4905">
      <path
         d="m 315.759,1648.18 0.762,0 0,-0.62 -0.762,0 0,0.62 z"
         id="path4907" />
    </clipPath>
    <clipPath
       id="clipPath4909">
      <path
         d="m 315.748,1648.19 0.011,0 0,-0.01 -0.011,0 0,0.01 z"
         id="path4911" />
    </clipPath>
    <clipPath
       id="clipPath4857">
      <path
         d="m 327.146,1644.07 0.45,0 0,-0.02 -0.45,0 0,0.02 z"
         id="path4859" />
    </clipPath>
    <clipPath
       id="clipPath4861">
      <path
         d="m 327.146,1644.07 0.446,0 0,-0.02 -0.446,0 0,0.02 z"
         id="path4863" />
    </clipPath>
    <clipPath
       id="clipPath4865">
      <path
         d="m 327.592,1644.05 0.004,0 0,0 -0.004,0 z"
         id="path4867" />
    </clipPath>
  </defs>
  <metadata
     id="metadata28088">
    <rdf:RDF>
      <cc:Work
         rdf:about="">
        <dc:format>image/svg+xml</dc:format>
        <dc:type
           rdf:resource="http://purl.org/dc/dcmitype/StillImage" />
        <dc:title></dc:title>
      </cc:Work>
    </rdf:RDF>
  </metadata>
  <g
     transform="translate(0,2)"
     id="g3605">
    <g
       id="g3835">
      <path
         d="m 34.625795,24.341095 -0.481614,-1.107716 c 0,-0.04816 -0.04816,-0.04816 -0.09632,-0.04816 h -1.444847 c -0.04816,0 -0.04816,0 -0.09633,0.04816 l -0.481616,1.107716 c 0,0.04816 0,0.09632 0,0.09632 l 0.770585,0.866909 -0.577939,2.311756 1.781978,-1.300363 -0.192647,-1.011393 0.770585,-0.866909 c 0.04816,-0.04816 0.04816,-0.09632 0.04816,-0.09632 z"
         id="path3027"
         style="fill:#cfcccd;fill-opacity:1" />
      <path
         d="m 33.325433,21.306916 c 2.841533,0 5.20145,-2.311755 5.20145,-5.201449 0,-2.841534 -2.311755,-5.201449 -5.20145,-5.201449 -2.841531,0 -5.201449,2.311755 -5.201449,5.201449 0,2.889694 2.359918,5.201449 5.201449,5.201449 z m -3.901087,-6.164681 c 0.481616,0.240808 1.348525,0.577939 2.311756,0.577939 0.722424,0 1.444847,-0.192646 2.167271,-0.674262 0.09632,-0.04816 1.830139,-1.300362 3.274986,-0.04816 0.09633,0.385292 0.192647,0.770585 0.192647,1.155878 0,2.215432 -1.781978,3.99741 -3.99741,3.99741 -2.215432,0 -3.997411,-1.781978 -3.997411,-3.99741 -0.04816,-0.385293 0,-0.674262 0.04816,-1.011394 z"
         id="path3029"
         style="fill:#cfcccd;fill-opacity:1" />
      <path
         d="m 42.620616,29.73519 0,-2.070948 c 0,-2.5044 -2.022784,-4.479024 -4.479025,-4.479024 l -0.144484,0 -2.022787,6.598134 -1.107717,0 -0.192645,-0.818747 -1.204039,0.818747 -1.107717,0 2.119109,-1.493008 -0.28897,-1.252201 -2.16727,1.54117 -0.288969,1.204039 -1.107715,0 -1.926464,-6.598134 -0.192646,0 c -2.504402,0 -4.479026,2.022784 -4.479026,4.479024 l 0,2.070948 -7.176074,0 -0.626099,-1.396685 3.708439,0 c 1.155879,0 2.119109,-0.963231 2.119109,-2.119109 l 0,-7.898497 c 0,-1.20404 -0.96323,-2.119109 -2.119109,-2.119109 l -12.1848756,0 c -1.2040396,0 -2.1191095,0.963231 -2.1191095,2.119109 l 0,7.850336 c 0,1.204039 0.9632318,2.119109 2.1191095,2.119109 l 3.6121176,0 -0.626101,1.396685 -10.11392952,0 0,5.923873 1.54116992,0 0.2317073,10.19164 43.9233513,0 -0.231707,-10.19164 1.54117,0 0,-5.875712 z"
         id="path3031"
         style="fill:#cfcccd;fill-opacity:1" />
    </g>
  </g>
</svg>
