<?xml version="1.0" encoding="UTF-8" standalone="no"?>
<!-- Created with Inkscape (http://www.inkscape.org/) -->

<svg
   xmlns:dc="http://purl.org/dc/elements/1.1/"
   xmlns:cc="http://creativecommons.org/ns#"
   xmlns:rdf="http://www.w3.org/1999/02/22-rdf-syntax-ns#"
   xmlns:svg="http://www.w3.org/2000/svg"
   xmlns="http://www.w3.org/2000/svg"
   xmlns:sodipodi="http://sodipodi.sourceforge.net/DTD/sodipodi-0.dtd"
   xmlns:inkscape="http://www.inkscape.org/namespaces/inkscape"
   width="48px"
   height="48px"
   id="svg28083"
   version="1.1"
   inkscape:version="0.48.4 r9943 custom"
   sodipodi:docname="cocktail.svg">
  <defs
     id="defs28085">
    <clipPath
       clipPathUnits="userSpaceOnUse"
       id="clipPath4901">
      <path
         inkscape:connector-curvature="0"
         d="m 315.748,1648.19 0.773,0 0,-0.63 -0.773,0 0,0.63 z"
         id="path4903" />
    </clipPath>
    <clipPath
       clipPathUnits="userSpaceOnUse"
       id="clipPath4905">
      <path
         inkscape:connector-curvature="0"
         d="m 315.759,1648.18 0.762,0 0,-0.62 -0.762,0 0,0.62 z"
         id="path4907" />
    </clipPath>
    <clipPath
       clipPathUnits="userSpaceOnUse"
       id="clipPath4909">
      <path
         inkscape:connector-curvature="0"
         d="m 315.748,1648.19 0.011,0 0,-0.01 -0.011,0 0,0.01 z"
         id="path4911" />
    </clipPath>
    <clipPath
       clipPathUnits="userSpaceOnUse"
       id="clipPath4857">
      <path
         inkscape:connector-curvature="0"
         d="m 327.146,1644.07 0.45,0 0,-0.02 -0.45,0 0,0.02 z"
         id="path4859" />
    </clipPath>
    <clipPath
       clipPathUnits="userSpaceOnUse"
       id="clipPath4861">
      <path
         inkscape:connector-curvature="0"
         d="m 327.146,1644.07 0.446,0 0,-0.02 -0.446,0 0,0.02 z"
         id="path4863" />
    </clipPath>
    <clipPath
       clipPathUnits="userSpaceOnUse"
       id="clipPath4865">
      <path
         inkscape:connector-curvature="0"
         d="m 327.592,1644.05 0.004,0 0,0 -0.004,0 z"
         id="path4867" />
    </clipPath>
  </defs>
  <sodipodi:namedview
     id="base"
     pagecolor="#ffffff"
     bordercolor="#666666"
     borderopacity="1.0"
     inkscape:pageopacity="0.0"
     inkscape:pageshadow="2"
     inkscape:zoom="7"
     inkscape:cx="26.60379"
     inkscape:cy="15.274454"
     inkscape:current-layer="layer1"
     showgrid="true"
     inkscape:grid-bbox="true"
     inkscape:document-units="px"
     inkscape:window-width="651"
     inkscape:window-height="653"
     inkscape:window-x="1333"
     inkscape:window-y="273"
     inkscape:window-maximized="0" />
  <metadata
     id="metadata28088">
    <rdf:RDF>
      <cc:Work
         rdf:about="">
        <dc:format>image/svg+xml</dc:format>
        <dc:type
           rdf:resource="http://purl.org/dc/dcmitype/StillImage" />
        <dc:title />
      </cc:Work>
    </rdf:RDF>
  </metadata>
  <g
     id="layer1"
     inkscape:label="Layer 1"
     inkscape:groupmode="layer">
    <g
       id="g5259">
      <g
         id="g13003"
         transform="matrix(1.25,0,0,-1.25,34.957457,8.6110393)">
        <path
           d="m 0,0 c -0.234,-0.573 -1.844,-3.828 -1.844,-3.828 0,0 -0.418,-0.15 -0.482,0.179 l -1.82,3.478 c 0,0 -0.575,0.689 0.248,1.092 0.824,0.405 2.625,0.518 3.587,0.159 C 0.654,0.723 0.236,0.573 0,0 m -1.975,2.508 c -3.615,0 -6.548,-2.77 -6.55,-6.453 l 0.031,0 1.045,0 c 0.156,1.008 0.629,2.352 1.121,2.879 0.629,0.669 1.119,-0.08 1.119,-0.08 l 2.453,-2.828 1.408,0 2.077,3.318 c 0,0 0.367,0.818 1.091,0.256 C 2.545,-0.964 3.434,-2.532 3.535,-3.555 3.637,-4.578 3.318,-4.268 2.699,-4.308 2.328,-4.333 0.861,-4.335 -0.244,-4.332 0.051,-4.467 0.193,-4.675 0.182,-4.934 l 1.92,-0.318 c 0,0 0.961,0.039 0.711,-0.864 -0.245,-0.887 -1.37,-2.298 -2.268,-2.775 -0.871,-0.463 -0.727,-0.084 -1.012,0.422 -0.138,0.246 -0.447,1.085 -0.73,1.883 l -0.688,-0.547 c 0.164,-0.619 0.303,-1.157 0.344,-1.363 0.121,-0.608 0.502,-0.832 -0.512,-1.002 -0.654,-0.109 -1.615,0.042 -2.412,0.311 l -0.883,-0.702 c 0.985,-0.604 2.139,-0.953 3.373,-0.953 3.62,0 6.553,2.989 6.553,6.675 0,3.686 -2.933,6.675 -6.553,6.675"
           style="fill:#cfcccd;fill-opacity:1;fill-rule:nonzero;stroke:none"
           id="path13005"
           inkscape:connector-curvature="0" />
      </g>
      <g
         id="g13007"
         transform="matrix(1.25,0,0,-1.25,27.899457,40.149139)">
        <path
           d="m 0,0 -4.848,0 0,12.742 c 0.582,0.099 1.135,0.321 1.584,0.673 L 3.883,19 c 1.25,0.976 1.056,1.774 -0.428,1.774 l -6.289,0 -5.4,0 -6.291,0 c -1.485,0 -1.678,-0.798 -0.428,-1.774 l 7.146,-5.585 c 0.45,-0.352 1.004,-0.574 1.584,-0.673 L -6.223,0 -11.07,0 c -0.209,0 -0.377,-0.171 -0.377,-0.378 0,-0.21 0.168,-0.379 0.377,-0.379 l 11.07,0 c 0.209,0 0.379,0.169 0.379,0.379 C 0.379,-0.171 0.209,0 0,0"
           style="fill:#cfcccd;fill-opacity:1;fill-rule:nonzero;stroke:none"
           id="path13009"
           inkscape:connector-curvature="0" />
      </g>
    </g>
  </g>
</svg>
