<?xml version="1.0" encoding="UTF-8" standalone="no"?>
<!-- Created with Inkscape (http://www.inkscape.org/) -->

<svg
   xmlns:dc="http://purl.org/dc/elements/1.1/"
   xmlns:cc="http://creativecommons.org/ns#"
   xmlns:rdf="http://www.w3.org/1999/02/22-rdf-syntax-ns#"
   xmlns:svg="http://www.w3.org/2000/svg"
   xmlns="http://www.w3.org/2000/svg"
   xmlns:sodipodi="http://sodipodi.sourceforge.net/DTD/sodipodi-0.dtd"
   xmlns:inkscape="http://www.inkscape.org/namespaces/inkscape"
   width="48px"
   height="48px"
   id="svg28083"
   version="1.1"
   inkscape:version="0.48.4 r9943 custom"
   sodipodi:docname="couverts.svg">
  <defs
     id="defs28085">
    <clipPath
       clipPathUnits="userSpaceOnUse"
       id="clipPath4901">
      <path
         inkscape:connector-curvature="0"
         d="m 315.748,1648.19 0.773,0 0,-0.63 -0.773,0 0,0.63 z"
         id="path4903" />
    </clipPath>
    <clipPath
       clipPathUnits="userSpaceOnUse"
       id="clipPath4905">
      <path
         inkscape:connector-curvature="0"
         d="m 315.759,1648.18 0.762,0 0,-0.62 -0.762,0 0,0.62 z"
         id="path4907" />
    </clipPath>
    <clipPath
       clipPathUnits="userSpaceOnUse"
       id="clipPath4909">
      <path
         inkscape:connector-curvature="0"
         d="m 315.748,1648.19 0.011,0 0,-0.01 -0.011,0 0,0.01 z"
         id="path4911" />
    </clipPath>
    <clipPath
       clipPathUnits="userSpaceOnUse"
       id="clipPath4857">
      <path
         inkscape:connector-curvature="0"
         d="m 327.146,1644.07 0.45,0 0,-0.02 -0.45,0 0,0.02 z"
         id="path4859" />
    </clipPath>
    <clipPath
       clipPathUnits="userSpaceOnUse"
       id="clipPath4861">
      <path
         inkscape:connector-curvature="0"
         d="m 327.146,1644.07 0.446,0 0,-0.02 -0.446,0 0,0.02 z"
         id="path4863" />
    </clipPath>
    <clipPath
       clipPathUnits="userSpaceOnUse"
       id="clipPath4865">
      <path
         inkscape:connector-curvature="0"
         d="m 327.592,1644.05 0.004,0 0,0 -0.004,0 z"
         id="path4867" />
    </clipPath>
  </defs>
  <sodipodi:namedview
     id="base"
     pagecolor="#ffffff"
     bordercolor="#666666"
     borderopacity="1.0"
     inkscape:pageopacity="0.0"
     inkscape:pageshadow="2"
     inkscape:zoom="7"
     inkscape:cx="26.60379"
     inkscape:cy="15.274454"
     inkscape:current-layer="layer1"
     showgrid="true"
     inkscape:grid-bbox="true"
     inkscape:document-units="px"
     inkscape:window-width="651"
     inkscape:window-height="653"
     inkscape:window-x="1333"
     inkscape:window-y="273"
     inkscape:window-maximized="0" />
  <metadata
     id="metadata28088">
    <rdf:RDF>
      <cc:Work
         rdf:about="">
        <dc:format>image/svg+xml</dc:format>
        <dc:type
           rdf:resource="http://purl.org/dc/dcmitype/StillImage" />
        <dc:title />
      </cc:Work>
    </rdf:RDF>
  </metadata>
  <g
     id="layer1"
     inkscape:label="Layer 1"
     inkscape:groupmode="layer">
    <g
       id="g5247">
      <g
         id="g12725"
         transform="matrix(1.25,0,0,-1.25,13.709792,7.6089857)">
        <path
           d="m 0,0 c -0.301,0 -0.548,-0.247 -0.548,-0.55 l 0,-6.449 c -0.505,-0.401 -0.787,-0.05 -0.825,0.004 l 0,6.445 c 0,0.303 -0.246,0.55 -0.549,0.55 -0.304,0 -0.55,-0.247 -0.55,-0.55 l 0,-6.445 C -2.967,-7.392 -3.248,-7.064 -3.295,-7 l 0,6.45 c 0,0.303 -0.247,0.55 -0.551,0.55 -0.303,0 -0.548,-0.247 -0.548,-0.55 l 0,-6.867 c 0,-0.025 0.002,-0.048 0.007,-0.07 0.021,-0.976 0.591,-1.81 1.406,-2.205 l 0,-15.996 c 0,-0.585 0.474,-1.061 1.059,-1.061 0.585,0 1.059,0.476 1.059,1.061 l 0,15.997 c 0.814,0.394 1.382,1.225 1.407,2.196 0.002,0.027 0.006,0.052 0.006,0.078 l 0,6.867 C 0.55,-0.247 0.304,0 0,0"
           style="fill:#cfcccd;fill-opacity:1;fill-rule:nonzero;stroke:none"
           id="path12727"
           inkscape:connector-curvature="0" />
      </g>
      <g
         id="g12729"
         transform="matrix(1.25,0,0,-1.25,8.9960421,20.611786)">
        <path
           d="m 0,0 c -0.336,0.21 -0.635,0.479 -0.885,0.788 -0.247,-1.051 -0.382,-2.144 -0.382,-3.269 0,-2.089 0.456,-4.073 1.267,-5.858 L 0,0 z"
           style="fill:#cfcccd;fill-opacity:1;fill-rule:nonzero;stroke:none"
           id="path12731"
           inkscape:connector-curvature="0" />
      </g>
      <g
         id="g12733"
         transform="matrix(1.25,0,0,-1.25,38.010292,7.7675857)">
        <path
           d="m 0,0 c 0.953,0 1.127,-1.671 1.127,-2.626 l 0.6,-9.28 c 0,-0.82 -0.57,-1.503 -1.336,-1.68 l 0,-11.976 c 0,-0.584 -0.474,-1.06 -1.06,-1.06 -0.585,0 -1.059,0.476 -1.059,1.06 l 0,13.656 0,2.648 0,7.53 C -1.728,0.092 -0.954,0 0,0"
           style="fill:#cfcccd;fill-opacity:1;fill-rule:nonzero;stroke:none"
           id="path12735"
           inkscape:connector-curvature="0" />
      </g>
      <g
         id="g12737"
         transform="matrix(1.25,0,0,-1.25,40.694672,15.199186)">
        <path
           d="m 0,0 0.358,-6.108 c 0.195,-1.869 -1.305,-2.538 -1.47,-2.604 l 0,-6.636 c 1.793,2.376 2.855,5.331 2.855,8.536 C 1.743,-4.343 1.11,-2.021 0,0"
           style="fill:#cfcccd;fill-opacity:1;fill-rule:nonzero;stroke:none"
           id="path12739"
           inkscape:connector-curvature="0" />
      </g>
      <g
         id="g12741"
         transform="matrix(1.25,0,0,-1.25,25.142292,32.954286)">
        <path
           d="m 0,0 c -4.082,0 -7.392,3.309 -7.392,7.393 0,4.081 3.31,7.391 7.392,7.391 4.083,0 7.393,-3.31 7.393,-7.391 C 7.393,3.309 4.083,0 0,0 m 0,21.577 c -2.767,0 -5.348,-0.796 -7.531,-2.168 l 0,-6.471 c 0,-0.036 -0.008,-0.071 -0.011,-0.108 -0.031,-1.215 -0.656,-2.278 -1.592,-2.902 l 0,-13.386 c 2.468,-2.081 5.655,-3.335 9.134,-3.335 2.894,0 5.585,0.868 7.831,2.357 l 0,23.657 C 5.585,20.709 2.894,21.577 0,21.577"
           style="fill:#cfcccd;fill-opacity:1;fill-rule:nonzero;stroke:none"
           id="path12743"
           inkscape:connector-curvature="0" />
      </g>
    </g>
  </g>
</svg>
