<?xml version="1.0" encoding="UTF-8" standalone="no"?>
<!-- Created with Inkscape (http://www.inkscape.org/) -->

<svg
   xmlns:dc="http://purl.org/dc/elements/1.1/"
   xmlns:cc="http://creativecommons.org/ns#"
   xmlns:rdf="http://www.w3.org/1999/02/22-rdf-syntax-ns#"
   xmlns:svg="http://www.w3.org/2000/svg"
   xmlns="http://www.w3.org/2000/svg"
   xmlns:sodipodi="http://sodipodi.sourceforge.net/DTD/sodipodi-0.dtd"
   xmlns:inkscape="http://www.inkscape.org/namespaces/inkscape"
   width="48px"
   height="48px"
   id="svg28083"
   version="1.1"
   inkscape:version="0.48.4 r9943 custom"
   sodipodi:docname="empreinte-animal.svg">
  <defs
     id="defs28085">
    <clipPath
       clipPathUnits="userSpaceOnUse"
       id="clipPath4901">
      <path
         inkscape:connector-curvature="0"
         d="m 315.748,1648.19 0.773,0 0,-0.63 -0.773,0 0,0.63 z"
         id="path4903" />
    </clipPath>
    <clipPath
       clipPathUnits="userSpaceOnUse"
       id="clipPath4905">
      <path
         inkscape:connector-curvature="0"
         d="m 315.759,1648.18 0.762,0 0,-0.62 -0.762,0 0,0.62 z"
         id="path4907" />
    </clipPath>
    <clipPath
       clipPathUnits="userSpaceOnUse"
       id="clipPath4909">
      <path
         inkscape:connector-curvature="0"
         d="m 315.748,1648.19 0.011,0 0,-0.01 -0.011,0 0,0.01 z"
         id="path4911" />
    </clipPath>
    <clipPath
       clipPathUnits="userSpaceOnUse"
       id="clipPath4857">
      <path
         inkscape:connector-curvature="0"
         d="m 327.146,1644.07 0.45,0 0,-0.02 -0.45,0 0,0.02 z"
         id="path4859" />
    </clipPath>
    <clipPath
       clipPathUnits="userSpaceOnUse"
       id="clipPath4861">
      <path
         inkscape:connector-curvature="0"
         d="m 327.146,1644.07 0.446,0 0,-0.02 -0.446,0 0,0.02 z"
         id="path4863" />
    </clipPath>
    <clipPath
       clipPathUnits="userSpaceOnUse"
       id="clipPath4865">
      <path
         inkscape:connector-curvature="0"
         d="m 327.592,1644.05 0.004,0 0,0 -0.004,0 z"
         id="path4867" />
    </clipPath>
  </defs>
  <sodipodi:namedview
     id="base"
     pagecolor="#ffffff"
     bordercolor="#666666"
     borderopacity="1.0"
     inkscape:pageopacity="0.0"
     inkscape:pageshadow="2"
     inkscape:zoom="7"
     inkscape:cx="24.32939"
     inkscape:cy="7.5058565"
     inkscape:current-layer="layer1"
     showgrid="true"
     inkscape:grid-bbox="true"
     inkscape:document-units="px"
     inkscape:window-width="651"
     inkscape:window-height="653"
     inkscape:window-x="1333"
     inkscape:window-y="273"
     inkscape:window-maximized="0" />
  <metadata
     id="metadata28088">
    <rdf:RDF>
      <cc:Work
         rdf:about="">
        <dc:format>image/svg+xml</dc:format>
        <dc:type
           rdf:resource="http://purl.org/dc/dcmitype/StillImage" />
        <dc:title />
      </cc:Work>
    </rdf:RDF>
  </metadata>
  <g
     id="layer1"
     inkscape:label="Layer 1"
     inkscape:groupmode="layer">
    <g
       id="g5209">
      <g
         id="g11045"
         transform="matrix(1.0761451,0,0,-1.0761451,5.8414481,14.780774)">
        <path
           d="m 0,0 c 0,0 1.123,4.466 3.357,1.168 l 2.1,-3.974 c 0,0 0.422,-2.584 -1.662,-3.22 0,0 -3.678,-0.37 -4.414,3.397 L 0,0 z"
           style="fill:#cfcccd;fill-opacity:1;fill-rule:nonzero;stroke:none"
           id="path11047"
           inkscape:connector-curvature="0" />
      </g>
      <g
         id="g11049"
         transform="matrix(1.0761451,0,0,-1.0761451,23.967863,20.202565)">
        <path
           d="M 0,0 C 0,0 1.305,4.417 -2.299,2.713 L -6.127,0.357 c 0,0 -1.676,-2.01 -0.205,-3.62 0,0 2.98,-2.183 5.529,0.685 L 0,0 z"
           style="fill:#cfcccd;fill-opacity:1;fill-rule:nonzero;stroke:none"
           id="path11051"
           inkscape:connector-curvature="0" />
      </g>
      <g
         id="g11053"
         transform="matrix(1.0761451,0,0,-1.0761451,11.266338,10.950214)">
        <path
           d="m 0,0 c 0,0 0.863,5.141 4.02,3.948 0,0 1.277,-1.06 0.81,-5.102 0,0 -0.791,-3.076 -2.387,-3.352 0,0 -2.226,0.277 -2.505,1.946 0,0 -0.278,1.5 0.062,2.56"
           style="fill:#cfcccd;fill-opacity:1;fill-rule:nonzero;stroke:none"
           id="path11055"
           inkscape:connector-curvature="0" />
      </g>
      <g
         id="g11057"
         transform="matrix(1.0761451,0,0,-1.0761451,21.838732,13.745694)">
        <path
           d="m 0,0 c 0,0 1.867,4.863 -1.455,5.443 0,0 -1.639,-0.266 -3.293,-3.983 0,0 -0.881,-3.049 0.352,-4.101 0,0 2.058,-0.889 3.146,0.404 0,0 1.004,1.152 1.25,2.237"
           style="fill:#cfcccd;fill-opacity:1;fill-rule:nonzero;stroke:none"
           id="path11059"
           inkscape:connector-curvature="0" />
      </g>
      <g
         id="g11061"
         transform="matrix(1.0761451,0,0,-1.0761451,8.6411471,10.221965)">
        <path
           d="m 0,0 c 0,0 0.25,1.116 0.895,1.231 0,0 -0.303,-1.309 -0.045,-1.526 0,0 -0.012,-0.183 -0.196,-0.175 0,0 -0.884,0.097 -0.654,0.47"
           style="fill:#cfcccd;fill-opacity:1;fill-rule:nonzero;stroke:none"
           id="path11063"
           inkscape:connector-curvature="0" />
      </g>
      <g
         id="g11065"
         transform="matrix(1.0761451,0,0,-1.0761451,14.696572,4.0025351)">
        <path
           d="m 0,0 c 0,0 0.25,1.116 0.893,1.23 0,0 -0.303,-1.31 -0.045,-1.525 0,0 -0.014,-0.184 -0.196,-0.175 0,0 -0.884,0.097 -0.652,0.47"
           style="fill:#cfcccd;fill-opacity:1;fill-rule:nonzero;stroke:none"
           id="path11067"
           inkscape:connector-curvature="0" />
      </g>
      <g
         id="g11069"
         transform="matrix(1.0761451,0,0,-1.0761451,24.770753,15.072969)">
        <path
           d="m 0,0 c 0,0 0.352,1.088 -0.143,1.516 0,0 -0.406,-1.285 -0.736,-1.339 0,0 -0.082,-0.163 0.08,-0.249 0,0 0.809,-0.367 0.799,0.072"
           style="fill:#cfcccd;fill-opacity:1;fill-rule:nonzero;stroke:none"
           id="path11071"
           inkscape:connector-curvature="0" />
      </g>
      <g
         id="g11073"
         transform="matrix(1.0761451,0,0,-1.0761451,21.365744,5.7355591)">
        <path
           d="m 0,0 c 0,0 0.354,1.088 -0.143,1.516 0,0 -0.406,-1.284 -0.736,-1.337 0,0 -0.082,-0.165 0.08,-0.251 0,0 0.811,-0.367 0.799,0.072"
           style="fill:#cfcccd;fill-opacity:1;fill-rule:nonzero;stroke:none"
           id="path11075"
           inkscape:connector-curvature="0" />
      </g>
      <g
         id="g11077"
         transform="matrix(1.0761451,0,0,-1.0761451,7.3443492,24.392643)">
        <path
           d="m 0,0 c 0,0 0.354,-0.127 4.301,3.432 0,0 2.551,2.417 3.676,-1.004 0,0 1.664,-4.188 2.002,-4.685 0,0 0.839,-2.315 -1.555,-3.247 0,0 -2.643,-0.306 -2.832,1.955 0,0 -2.113,0.203 -2.256,0.492 0,0 -3.6,-2.285 -4.168,1.542 0,0 0.164,1.107 0.832,1.515"
           style="fill:#cfcccd;fill-opacity:1;fill-rule:nonzero;stroke:none"
           id="path11079"
           inkscape:connector-curvature="0" />
      </g>
      <g
         id="g11081"
         transform="matrix(1.0761451,0,0,-1.0761451,44.738324,28.424916)">
        <path
           d="M 0,0 C 0,0 -0.43,4.584 -3.141,1.661 L -5.82,-1.946 c 0,0 -0.811,-2.49 1.154,-3.436 0,0 3.58,-0.921 4.879,2.69 L 0,0 z"
           style="fill:#cfcccd;fill-opacity:1;fill-rule:nonzero;stroke:none"
           id="path11083"
           inkscape:connector-curvature="0" />
      </g>
      <g
         id="g11085"
         transform="matrix(1.0761451,0,0,-1.0761451,26.0004,31.031253)">
        <path
           d="m 0,0 c 0,0 -0.617,4.562 2.684,2.331 l 3.427,-2.909 c 0,0 1.35,-2.243 -0.349,-3.609 0,0 -3.28,-1.707 -5.36,1.516 L 0,0 z"
           style="fill:#cfcccd;fill-opacity:1;fill-rule:nonzero;stroke:none"
           id="path11087"
           inkscape:connector-curvature="0" />
      </g>
      <g
         id="g11089"
         transform="matrix(1.0761451,0,0,-1.0761451,39.95869,23.815571)">
        <path
           d="m 0,0 c 0,0 -0.074,5.21 -3.373,4.514 0,0 -1.424,-0.858 -1.576,-4.92 0,0 0.314,-3.16 1.849,-3.677 0,0 2.243,-0.063 2.774,1.543 0,0 0.5,1.441 0.326,2.54"
           style="fill:#cfcccd;fill-opacity:1;fill-rule:nonzero;stroke:none"
           id="path11091"
           inkscape:connector-curvature="0" />
      </g>
      <g
         id="g11093"
         transform="matrix(1.0761451,0,0,-1.0761451,29.083771,24.973761)">
        <path
           d="m 0,0 c 0,0 -1.105,5.092 2.266,5.158 0,0 1.58,-0.512 2.65,-4.437 0,0 0.406,-3.147 -0.971,-3.998 0,0 -2.172,-0.569 -3.05,0.876 0,0 -0.815,1.291 -0.895,2.401"
           style="fill:#cfcccd;fill-opacity:1;fill-rule:nonzero;stroke:none"
           id="path11095"
           inkscape:connector-curvature="0" />
      </g>
      <g
         id="g11097"
         transform="matrix(1.0761451,0,0,-1.0761451,42.663688,23.494019)">
        <path
           d="m 0,0 c 0,0 -0.078,1.141 -0.697,1.352 0,0 0.099,-1.341 -0.188,-1.514 0,0 -0.013,-0.185 0.168,-0.203 0,0 0.889,-0.04 0.717,0.365"
           style="fill:#cfcccd;fill-opacity:1;fill-rule:nonzero;stroke:none"
           id="path11099"
           inkscape:connector-curvature="0" />
      </g>
      <g
         id="g11101"
         transform="matrix(1.0761451,0,0,-1.0761451,37.623455,16.42762)">
        <path
           d="m 0,0 c 0,0 -0.078,1.141 -0.697,1.352 0,0 0.099,-1.34 -0.186,-1.515 0,0 -0.015,-0.183 0.166,-0.204 0,0 0.889,-0.038 0.717,0.367"
           style="fill:#cfcccd;fill-opacity:1;fill-rule:nonzero;stroke:none"
           id="path11103"
           inkscape:connector-curvature="0" />
      </g>
      <g
         id="g11105"
         transform="matrix(1.0761451,0,0,-1.0761451,25.98146,25.84079)">
        <path
           d="m 0,0 c 0,0 -0.182,1.129 0.375,1.476 0,0 0.205,-1.33 0.523,-1.434 0,0 0.057,-0.175 -0.117,-0.236 0,0 -0.855,-0.24 -0.781,0.194"
           style="fill:#cfcccd;fill-opacity:1;fill-rule:nonzero;stroke:none"
           id="path11107"
           inkscape:connector-curvature="0" />
      </g>
      <g
         id="g11109"
         transform="matrix(1.0761451,0,0,-1.0761451,30.767292,17.129697)">
        <path
           d="m 0,0 c 0,0 -0.184,1.132 0.371,1.478 0,0 0.207,-1.332 0.525,-1.434 0,0 0.055,-0.177 -0.117,-0.235 0,0 -0.855,-0.24 -0.779,0.191"
           style="fill:#cfcccd;fill-opacity:1;fill-rule:nonzero;stroke:none"
           id="path11111"
           inkscape:connector-curvature="0" />
      </g>
      <g
         id="g11113"
         transform="matrix(1.0761451,0,0,-1.0761451,41.79356,37.699392)">
        <path
           d="m 0,0 c 0,0 -0.369,-0.072 -3.73,4.046 0,0 -2.153,2.775 -3.784,-0.434 0,0 -2.283,-3.887 -2.691,-4.327 0,0 -1.182,-2.159 1.045,-3.446 0,0 2.564,-0.704 3.094,1.502 0,0 2.119,-0.118 2.306,0.143 0,0 3.211,-2.803 4.352,0.893 0,0 0.006,1.117 -0.592,1.623"
           style="fill:#cfcccd;fill-opacity:1;fill-rule:nonzero;stroke:none"
           id="path11115"
           inkscape:connector-curvature="0" />
      </g>
    </g>
  </g>
</svg>
