<?xml version="1.0" encoding="UTF-8" standalone="no"?>
<!-- Created with Inkscape (http://www.inkscape.org/) -->

<svg
   xmlns:dc="http://purl.org/dc/elements/1.1/"
   xmlns:cc="http://creativecommons.org/ns#"
   xmlns:rdf="http://www.w3.org/1999/02/22-rdf-syntax-ns#"
   xmlns:svg="http://www.w3.org/2000/svg"
   xmlns="http://www.w3.org/2000/svg"
   xmlns:sodipodi="http://sodipodi.sourceforge.net/DTD/sodipodi-0.dtd"
   xmlns:inkscape="http://www.inkscape.org/namespaces/inkscape"
   width="48px"
   height="48px"
   id="svg28083"
   version="1.1"
   inkscape:version="0.48.4 r9939"
   sodipodi:docname="photo-euro.svg">
  <defs
     id="defs28085" />
  <sodipodi:namedview
     id="base"
     pagecolor="#ffffff"
     bordercolor="#666666"
     borderopacity="1.0"
     inkscape:pageopacity="0.0"
     inkscape:pageshadow="2"
     inkscape:zoom="7"
     inkscape:cx="24"
     inkscape:cy="35.428571"
     inkscape:current-layer="layer1"
     showgrid="true"
     inkscape:grid-bbox="true"
     inkscape:document-units="px"
     inkscape:window-width="651"
     inkscape:window-height="653"
     inkscape:window-x="2029"
     inkscape:window-y="305"
     inkscape:window-maximized="0" />
  <metadata
     id="metadata28088">
    <rdf:RDF>
      <cc:Work
         rdf:about="">
        <dc:format>image/svg+xml</dc:format>
        <dc:type
           rdf:resource="http://purl.org/dc/dcmitype/StillImage" />
        <dc:title />
      </cc:Work>
    </rdf:RDF>
  </metadata>
  <g
     id="layer1"
     inkscape:label="Layer 1"
     inkscape:groupmode="layer">
    <g
       id="g2998">
      <path
         d="m 12.199496,10.172992 4.187093,0 0,1.993474 -4.187093,0 0,-1.993474 z m 0.399492,3.189558 3.387311,0 c 1.212032,0 2.192821,-0.982385 2.192821,-2.192025 0,-1.2112343 -0.980789,-2.1920228 -2.192821,-2.1920228 l -3.387311,0 c -1.210437,0 -2.19282,0.9807885 -2.19282,2.1920228 0,1.20964 0.982383,2.192025 2.19282,2.192025"
         style="fill:#cfcccd;fill-opacity:1;fill-rule:nonzero;stroke:none"
         id="path13871"
         inkscape:connector-curvature="0" />
      <g
         style="fill:#cfcccd"
         id="g13873"
         transform="matrix(0.79738949,0,0,-0.79738949,12.647629,25.321956)">
        <path
           d="m 0,0 c -1.774,0 -3.21,1.437 -3.21,3.209 0,1.774 1.436,3.213 3.21,3.213 1.772,0 3.209,-1.439 3.209,-3.213 C 3.209,1.437 1.772,0 0,0 m -0.061,8.288 c -2.761,0 -5,-2.238 -5,-4.999 0,-2.762 2.239,-5 5,-5 2.761,0 5,2.238 5,5 0,2.761 -2.239,4.999 -5,4.999"
           style="fill:#cfcccd;fill-opacity:1;fill-rule:nonzero;stroke:none"
           id="path13875"
           inkscape:connector-curvature="0" />
      </g>
      <g
         style="fill:#cfcccd"
         id="g13877"
         transform="matrix(0.79738949,0,0,-0.79738949,12.599307,28.281387)">
        <path
           d="m 0,0 c -3.867,0 -7,3.136 -7,7 0,3.865 3.133,6.998 7,6.998 C 3.864,13.998 6.997,10.865 6.997,7 6.997,3.136 3.864,0 0,0 m -9.249,10.251 -1.751,0 0,1.748 1.751,0 0,-1.748 z m 18.556,4.997 -2.31,0 c 0,1.519 -1.229,2.751 -2.749,2.751 l -4.248,0 c -1.518,0 -2.75,-1.232 -2.75,-2.751 l -2.999,0 c 0.275,0 0.499,0.224 0.499,0.5 0,0.277 -0.224,0.501 -0.499,0.501 l -3.308,0 c -0.275,0 -0.501,-0.224 -0.501,-0.501 0,-0.276 0.226,-0.5 0.501,-0.5 l -0.501,0 c -2.177,0 -3.942,-1.763 -3.942,-3.94 l 0,-8.367 c 0,-2.176 1.765,-3.939 3.942,-3.939 l 18.865,0 c 2.176,0 3.939,1.763 3.939,3.939 l 0,8.367 c 0,2.177 -1.763,3.94 -3.939,3.94"
           style="fill:#cfcccd;fill-opacity:1;fill-rule:nonzero;stroke:none"
           id="path13879"
           inkscape:connector-curvature="0" />
      </g>
      <g
         style="fill:#cfcccd"
         id="g3461"
         transform="matrix(0.90874065,0,0,-0.90874065,30.842172,36.915431)">
        <path
           inkscape:connector-curvature="0"
           id="path3463"
           d="m -5.7754892,-5.7664506 c -0.4303594,0.00689 -0.7856214,0.051329 -0.9628711,0.2063295 -0.7079995,0.6189995 -0.4187289,1.602071 0.3782708,2.1320715 0.4649996,0.3100004 0.9935299,1.1675774 1.37553,1.8225773 -4.5230001,1.63399974 -7.8749095,8.0772067 -7.8749095,15.7842063 0,0.984001 0.03155,1.953613 0.137553,2.888613 0.192,0.639 0.83479,2.097684 2.372789,2.097684 l 15.0276658,0 c 0,0 2.1711189,-0.06697 2.5791187,-1.856966 0.028,-0.22 0.047776,-0.431377 0.068777,-0.653377 0.002,-0.099 -0.011,-0.166717 0,-0.240717 0.064,-0.728 0.1031647,-1.480237 0.1031647,-2.235237 0,-7.7130002 -3.3792975,-14.15720636 -7.90929745,-15.7842063 0.16000055,-1.0019999 0.66963551,-2.2765539 1.65063605,-3.0605543 1.3289996,-1.0629997 -0.90217716,-0.9689299 -2.4071776,-0.7909297 -1.1295005,0.1327496 -3.248171,-0.3301658 -4.5392489,-0.3094943 z M -1.614511,3.6903182 C 0.10245966,3.5951755 1.549208,4.3093067 1.549208,4.3093067 L 0.998996,6.2006604 C -3.1447848,3.9027792 -4.3999593,7.8856847 -4.3999593,7.8856847 l 5.1926258,0 -0.44704725,1.3411417 -4.95190805,0 c -0.1410116,0.2612473 0.034388,0.7565415 0.034388,0.7565415 l 4.951908,0 -0.30949425,1.2379771 -4.47047255,0 c 1.3984354,4.782884 5.5365083,2.028907 5.5365083,2.028907 l 0.275106,1.994518 c -6.7255065,2.342176 -7.7373563,-4.057813 -7.7373563,-4.057813 l -1.2723652,0 0.3094942,-1.2035891 0.7565415,0 c 0.02531,-0.1898308 0.068777,-0.9284827 0.068777,-0.9284827 l -1.100424,0 0.3094943,-1.1692005 0.8940945,0 C -5.3182686,4.6892611 -3.3314817,3.7854608 -1.614511,3.6903182 z"
           style="fill:#cfcccd;fill-opacity:1;fill-rule:nonzero;stroke:none" />
      </g>
      <g
         style="fill:#cfcccd"
         id="g3473"
         transform="matrix(0.90874065,0,0,-0.90874065,46.135921,33.181088)">
        <path
           d="m 0,0 c -0.008,-0.021 -0.014,-0.043 -0.025,-0.064 -0.091,-0.184 -0.185,-0.358 -0.283,-0.53 0,-0.002 -0.002,-0.003 -0.002,-0.003 0.025,-0.116 0.027,-0.246 -0.003,-0.383 -0.102,-0.45 -0.289,-0.905 -0.54,-1.327 -0.2,-2.211 -2.082,-3.944 -4.374,-3.944 -2.425,0 -4.392,1.94 -4.392,4.334 0,0.205 0.015,0.407 0.044,0.605 -0.345,0.52 -0.645,1.064 -0.773,1.57 -0.294,-0.667 -0.46,-1.401 -0.46,-2.175 0,-3.04 2.498,-5.505 5.581,-5.505 3.081,0 5.582,2.465 5.582,5.505 C 0.355,-1.242 0.226,-0.597 0,0"
           style="fill:#cfcccd;fill-opacity:1;fill-rule:nonzero;stroke:none"
           id="path3475"
           inkscape:connector-curvature="0" />
      </g>
      <g
         style="fill:#cfcccd"
         id="g3477"
         transform="matrix(0.90874065,0,0,-0.90874065,46.028958,35.275482)">
        <path
           d="m 0,0 c -0.096,-0.576 -0.373,-1.148 -0.568,-1.701 -0.036,-0.107 -0.091,-0.203 -0.156,-0.285 0.002,-0.046 0.01,-0.09 0.01,-0.135 0,-2.312 -1.969,-4.186 -4.395,-4.186 -2.426,0 -4.392,1.874 -4.392,4.186 0,0.152 0.009,0.302 0.026,0.449 -0.37,0.54 -0.641,1.225 -0.637,1.887 -0.367,-0.704 -0.578,-1.495 -0.578,-2.336 0,-2.938 2.498,-5.316 5.581,-5.316 3.081,0 5.582,2.378 5.582,5.316 C 0.473,-1.365 0.301,-0.648 0,0"
           style="fill:#cfcccd;fill-opacity:1;fill-rule:nonzero;stroke:none"
           id="path3479"
           inkscape:connector-curvature="0" />
      </g>
      <g
         style="fill:#cfcccd"
         id="g3481"
         transform="matrix(0.90874065,0,0,-0.90874065,41.385839,36.533832)">
        <path
           d="m 0,0 c -2.425,0 -4.392,1.939 -4.392,4.334 0,2.393 1.967,4.333 4.392,4.333 2.427,0 4.395,-1.94 4.395,-4.333 C 4.395,1.939 2.427,0 0,0 m 0,9.84 c -3.083,0 -5.581,-2.466 -5.581,-5.506 0,-3.042 2.498,-5.506 5.581,-5.506 3.082,0 5.582,2.464 5.582,5.506 0,3.04 -2.5,5.506 -5.582,5.506"
           style="fill:#cfcccd;fill-opacity:1;fill-rule:nonzero;stroke:none"
           id="path3483"
           inkscape:connector-curvature="0" />
      </g>
      <path
         sodipodi:nodetypes="ccccccccccccccccccccc"
         inkscape:connector-curvature="0"
         id="path4606-4"
         style="fill:#cfcccd;fill-opacity:1;fill-rule:nonzero;stroke:none"
         d="m 42.509059,31.841378 -0.161806,0.484779 -1.779582,0 c -0.05069,0.0939 0.0091,0.263835 0.0091,0.263835 l 1.778607,0 -0.102019,0.451311 -1.617123,0 c 0.502652,1.719148 1.992081,0.732369 1.992081,0.732369 l 0.101704,0.706699 c -2.417414,0.841866 -2.783598,-1.447514 -2.783598,-1.447514 l -0.458786,0 0.109825,-0.434093 0.281054,0 c 0.0091,-0.06824 0.01715,-0.331743 0.01715,-0.331743 l -0.391528,0 0.110472,-0.425643 0.32362,0 c 0.748938,-2.29783 2.843043,-1.285706 2.843043,-1.285706 l -0.204374,0.681681 c -1.489431,-0.825944 -1.931645,0.604025 -1.931645,0.604025 z" />
    </g>
  </g>
</svg>
