<?xml version="1.0" encoding="UTF-8" standalone="no"?>
<!-- Created with Inkscape (http://www.inkscape.org/) -->

<svg
   xmlns:dc="http://purl.org/dc/elements/1.1/"
   xmlns:cc="http://creativecommons.org/ns#"
   xmlns:rdf="http://www.w3.org/1999/02/22-rdf-syntax-ns#"
   xmlns:svg="http://www.w3.org/2000/svg"
   xmlns="http://www.w3.org/2000/svg"
   xmlns:sodipodi="http://sodipodi.sourceforge.net/DTD/sodipodi-0.dtd"
   xmlns:inkscape="http://www.inkscape.org/namespaces/inkscape"
   version="1.1"
   width="48"
   height="48"
   id="svg28083"
   inkscape:version="0.48.4 r9939"
   sodipodi:docname="travail-dans-commune.svg">
  <sodipodi:namedview
     pagecolor="#ffffff"
     bordercolor="#666666"
     borderopacity="1"
     objecttolerance="10"
     gridtolerance="10"
     guidetolerance="10"
     inkscape:pageopacity="0"
     inkscape:pageshadow="2"
     inkscape:window-width="1680"
     inkscape:window-height="1026"
     id="namedview49"
     showgrid="false"
     inkscape:zoom="9.8333333"
     inkscape:cx="-3.569842"
     inkscape:cy="26.77541"
     inkscape:window-x="1920"
     inkscape:window-y="24"
     inkscape:window-maximized="1"
     inkscape:current-layer="svg28083" />
  <defs
     id="defs28085">
    <marker
       refX="0"
       refY="0"
       orient="auto"
       id="Arrow2Send"
       style="overflow:visible">
      <path
         d="M 8.7185878,4.0337352 -2.2072895,0.01601326 8.7185884,-4.0017078 c -1.7454984,2.3720609 -1.7354408,5.6174519 -6e-7,8.035443 z"
         transform="matrix(-0.3,0,0,-0.3,0.69,0)"
         id="path3974"
         style="fill-rule:evenodd;stroke-width:0.625;stroke-linejoin:round" />
    </marker>
    <marker
       refX="0"
       refY="0"
       orient="auto"
       id="Arrow2Sstart"
       style="overflow:visible">
      <path
         d="M 8.7185878,4.0337352 -2.2072895,0.01601326 8.7185884,-4.0017078 c -1.7454984,2.3720609 -1.7354408,5.6174519 -6e-7,8.035443 z"
         transform="matrix(0.3,0,0,0.3,-0.69,0)"
         id="path3971"
         style="fill-rule:evenodd;stroke-width:0.625;stroke-linejoin:round" />
    </marker>
    <marker
       refX="0"
       refY="0"
       orient="auto"
       id="Arrow2Lstart"
       style="overflow:visible">
      <path
         d="M 8.7185878,4.0337352 -2.2072895,0.01601326 8.7185884,-4.0017078 c -1.7454984,2.3720609 -1.7354408,5.6174519 -6e-7,8.035443 z"
         transform="matrix(1.1,0,0,1.1,1.1,0)"
         id="path3959"
         style="fill-rule:evenodd;stroke-width:0.625;stroke-linejoin:round" />
    </marker>
    <marker
       refX="0"
       refY="0"
       orient="auto"
       id="Arrow1Mstart"
       style="overflow:visible">
      <path
         d="M 0,0 5,-5 -12.5,0 5,5 0,0 z"
         transform="matrix(0.4,0,0,0.4,4,0)"
         id="path3947"
         style="fill-rule:evenodd;stroke:#000000;stroke-width:1pt" />
    </marker>
    <marker
       refX="0"
       refY="0"
       orient="auto"
       id="Arrow1Lend"
       style="overflow:visible">
      <path
         d="M 0,0 5,-5 -12.5,0 5,5 0,0 z"
         transform="matrix(-0.8,0,0,-0.8,-10,0)"
         id="path3944"
         style="fill-rule:evenodd;stroke:#000000;stroke-width:1pt" />
    </marker>
    <marker
       refX="0"
       refY="0"
       orient="auto"
       id="Arrow1Lstart"
       style="overflow:visible">
      <path
         d="M 0,0 5,-5 -12.5,0 5,5 0,0 z"
         transform="matrix(0.8,0,0,0.8,10,0)"
         id="path3941"
         style="fill-rule:evenodd;stroke:#000000;stroke-width:1pt" />
    </marker>
    <clipPath
       id="clipPath4901">
      <path
         d="m 315.748,1648.19 0.773,0 0,-0.63 -0.773,0 0,0.63 z"
         id="path4903" />
    </clipPath>
    <clipPath
       id="clipPath4905">
      <path
         d="m 315.759,1648.18 0.762,0 0,-0.62 -0.762,0 0,0.62 z"
         id="path4907" />
    </clipPath>
    <clipPath
       id="clipPath4909">
      <path
         d="m 315.748,1648.19 0.011,0 0,-0.01 -0.011,0 0,0.01 z"
         id="path4911" />
    </clipPath>
    <clipPath
       id="clipPath4857">
      <path
         d="m 327.146,1644.07 0.45,0 0,-0.02 -0.45,0 0,0.02 z"
         id="path4859" />
    </clipPath>
    <clipPath
       id="clipPath4861">
      <path
         d="m 327.146,1644.07 0.446,0 0,-0.02 -0.446,0 0,0.02 z"
         id="path4863" />
    </clipPath>
    <clipPath
       id="clipPath4865">
      <path
         d="m 327.592,1644.05 0.004,0 0,0 -0.004,0 z"
         id="path4867" />
    </clipPath>
  </defs>
  <metadata
     id="metadata28088">
    <rdf:RDF>
      <cc:Work
         rdf:about="">
        <dc:format>image/svg+xml</dc:format>
        <dc:type
           rdf:resource="http://purl.org/dc/dcmitype/StillImage" />
        <dc:title />
      </cc:Work>
    </rdf:RDF>
  </metadata>
  <g
     id="g3030">
    <g
       id="g3932"
       transform="matrix(0.53926845,0,0,0.53926845,10.848719,-0.14014289)">
      <g
         id="g7214"
         transform="matrix(0.82944206,0,0,-0.82944206,16.749796,23.39946)">
        <path
           style="fill:#cfcccd;fill-opacity:1;fill-rule:nonzero;stroke:none"
           id="path7216"
           d="m 0,0 c 3.424,0 6.201,2.776 6.201,6.199 0,3.424 -2.777,6.199 -6.201,6.199 -3.423,0 -6.199,-2.775 -6.199,-6.199 C -6.199,2.776 -3.423,0 0,0" />
      </g>
      <g
         id="g7218"
         transform="matrix(0.82944206,0,0,-0.82944206,22.630871,25.473928)">
        <path
           style="fill:#cfcccd;fill-opacity:1;fill-rule:nonzero;stroke:none"
           id="path7220"
           d="m 0,0 -1.737,0 -4.67,-11.236 1.4,6.3 -1.501,1.663 1.501,1.889 -2.115,2.266 -2.18,-2.343 1.5,-1.812 -1.5,-1.739 1.397,-6.049 L -12.482,0 -14.354,0 c -1.645,0 -2.979,-1.354 -2.979,-3.021 l 0,-14.387 c 0,-1.67 1.334,-3.023 2.979,-3.023 l 14.354,0 c 1.646,0 2.979,1.353 2.979,3.023 l 0,14.387 C 2.979,-1.354 1.646,0 0,0" />
      </g>
    </g>
    <g
       id="g3915"
       transform="matrix(0.36911063,0,0,0.36911063,16.097409,3.6712101)">
      <path
         inkscape:connector-curvature="0"
         id="path3846"
         d="m 36.992841,3.8435162 c -2.520731,0 -4.994386,1.0297931 -6.776813,2.8122188 -1.782427,1.7824256 -2.812219,4.256081 -2.812219,6.776813 0,2.520732 1.029792,5.004959 2.812219,6.787385 1.782427,1.782426 4.256082,2.812219 6.776813,2.812219 2.520731,0 5.004958,-1.029793 6.787385,-2.812219 1.782427,-1.782426 2.812219,-4.266653 2.812219,-6.787385 0,-2.520732 -1.029792,-4.9943874 -2.812219,-6.776813 C 41.997799,4.8733093 39.513572,3.8435162 36.992841,3.8435162 z m 0,1.5012596 c 2.108921,0 4.228355,0.8769529 5.719587,2.3681842 1.491233,1.4912314 2.378757,3.610667 2.378757,5.719588 0,2.108921 -0.887524,4.238928 -2.378757,5.73016 -1.491232,1.491231 -3.610666,2.368184 -5.719587,2.368184 -2.086311,0 -4.178185,-0.863674 -5.666727,-2.325895 l -0.05286,-0.04229 c -1.491232,-1.491232 -2.368184,-3.621239 -2.368184,-5.73016 0,-2.108921 0.876952,-4.2283566 2.368184,-5.719588 1.491232,-1.4912313 3.610666,-2.3681842 5.719588,-2.3681842 z"
         style="font-size:medium;font-style:normal;font-variant:normal;font-weight:normal;font-stretch:normal;text-indent:0;text-align:start;text-decoration:none;line-height:normal;letter-spacing:normal;word-spacing:normal;text-transform:none;direction:ltr;block-progression:tb;writing-mode:lr-tb;text-anchor:start;baseline-shift:baseline;color:#000000;fill:#cfcccd;fill-opacity:1;stroke:none;stroke-width:4.43536568;marker:none;visibility:visible;display:inline;overflow:visible;enable-background:accumulate;font-family:Sans;-inkscape-font-specification:Sans" />
      <g
         id="g3838-6"
         transform="matrix(1,0,0,0.8727911,-117.62052,-12.914281)">
        <g
           id="g214-7"
           transform="matrix(1.25,0,0,-1.25,154.08317,29.906286)">
          <path
             style="fill:#cfcccd;fill-opacity:1;fill-rule:nonzero;stroke:none"
             id="path216-5"
             d="m 0,0 c -0.455,0.007 -0.83,-0.355 -0.838,-0.812 -0.006,-0.455 0.358,-0.831 0.813,-0.836 0.457,-0.006 0.83,0.357 0.837,0.813 C 0.816,-0.381 0.455,-0.006 0,0" />
        </g>
        <g
           id="g218-3"
           transform="matrix(1.25,0,0,-1.25,160.19407,30.640986)">
          <path
             style="fill:#cfcccd;fill-opacity:1;fill-rule:nonzero;stroke:none"
             id="path220-5"
             d="m 0,0 -3.566,0.052 c -0.149,0.002 -0.27,-0.136 -0.272,-0.309 -0.002,-0.171 0.115,-0.311 0.264,-0.311 L -0.01,-0.62 C 0.139,-0.624 0.262,-0.486 0.262,-0.315 0.266,-0.143 0.148,-0.004 0,0" />
        </g>
        <g
           id="g222-6"
           transform="matrix(1.25,0,0,-1.25,154.10277,29.666886)">
          <path
             style="fill:#cfcccd;fill-opacity:1;fill-rule:nonzero;stroke:none"
             id="path224-2"
             d="M 0,0 C 0.172,-0.002 0.314,0.154 0.316,0.351 L 0.385,5.04 C 0.387,5.234 0.25,5.394 0.08,5.396 -0.092,5.399 -0.23,5.243 -0.234,5.048 L -0.301,0.359 C -0.305,0.164 -0.168,0.004 0,0" />
        </g>
      </g>
    </g>
    <g
       style="color:#000000;fill:#000000;fill-opacity:1;fill-rule:nonzero;stroke-width:0.92180866;stroke-linecap:butt;stroke-linejoin:miter;stroke-miterlimit:4;stroke-opacity:1;stroke-dasharray:none;stroke-dashoffset:0;marker:none;visibility:visible;display:inline;overflow:visible;enable-background:accumulate"
       id="g2993"
       transform="matrix(0.90789115,0,0,0.90789115,70.806958,-29.881288)">
      <path
         style="color:#000000;fill:#cfcccd;fill-opacity:1;fill-rule:nonzero;stroke:none;stroke-width:0.92180866;marker:none;visibility:visible;display:inline;overflow:visible;enable-background:accumulate"
         id="path3017"
         d="m -28.936939,64.446424 c 0.890561,0 1.612676,0.722115 1.612676,1.612958 0,0.890844 -0.722115,1.612959 -1.612676,1.612959 -0.890843,0 -1.612958,-0.722115 -1.612958,-1.612959 0,-0.890843 0.721832,-1.612958 1.612958,-1.612958 z m -1.658744,3.255875 c 0.653154,0 1.182798,0.529645 1.182798,1.182799 0,0.653153 -0.529644,1.182798 -1.182798,1.182798 -0.653436,0 -1.182798,-0.529645 -1.182798,-1.182798 0,-0.653154 0.529362,-1.182799 1.182798,-1.182799 z m -1.136447,2.702772 c 0.38183,0 0.691025,0.309478 0.691025,0.691309 0,0.38183 -0.309478,0.691307 -0.691025,0.691307 -0.382113,0 -0.691309,-0.309477 -0.691309,-0.691307 0,-0.381831 0.309196,-0.691309 0.691309,-0.691309 z m 5.07176,14.365136 c 0,0.290542 -0.526536,0.526253 -0.526536,0.526253 l -6.212447,0 c 0,0 -0.526536,-0.235711 -0.526536,-0.526253 l 0,-6.950107 c 0,-0.290541 0.235711,-0.526253 0.526536,-0.526253 l 0.328696,0 0.08733,-4.373386 c 0.0025,-0.117574 0.09864,-0.211689 0.216211,-0.211689 l 1.310264,0 c 0.117572,0 0.213666,0.09412 0.21621,0.211689 l 0.08733,4.373386 3.966967,0 c 0.290824,0 0.526536,0.235712 0.526536,0.526253 l 0,6.950107 z" />
    </g>
    <polygon
       style="color:#000000;fill:#cfcccd;fill-opacity:1;fill-rule:nonzero;stroke:none;marker:none;visibility:visible;display:inline;overflow:visible;enable-background:accumulate"
       id="polygon4"
       transform="matrix(0.4072309,0,0,0.4072309,0.20602707,20.552671)"
       points="23.632,45.296 14.949,39.127 6.269,45.296 6.269,61.75 6.269,66.318 23.632,66.318 28.202,66.318 42.826,66.318 44.426,66.318 46.596,66.318 59.048,66.318 75.615,66.318 77.784,66.318 94.233,66.318 94.233,61.75 94.233,53.021 86.011,46.987 77.784,53.021 77.784,61.75 75.615,61.75 75.615,50.78 59.048,50.78 59.048,45.401 44.426,45.401 44.426,61.75 42.826,61.75 42.826,33.979 28.202,33.979 28.202,61.75 23.632,61.75 " />
    <rect
       style="color:#000000;fill:#cfcccd;fill-opacity:1;fill-rule:nonzero;stroke:none;stroke-width:0.92180866;marker:none;visibility:visible;display:inline;overflow:visible;enable-background:accumulate"
       id="rect3053"
       y="45.740543"
       x="10.438693"
       height="1.8279994"
       width="35.123703" />
    <g
       id="g5757">
      <path
         style="font-size:medium;font-style:normal;font-variant:normal;font-weight:normal;font-stretch:normal;text-indent:0;text-align:start;text-decoration:none;line-height:normal;letter-spacing:normal;word-spacing:normal;text-transform:none;direction:ltr;block-progression:tb;writing-mode:lr-tb;text-anchor:start;baseline-shift:baseline;color:#000000;fill:#cfcccd;fill-opacity:1;stroke:none;stroke-width:0.52399999;marker:none;visibility:visible;display:inline;overflow:visible;enable-background:accumulate;font-family:Sans;-inkscape-font-specification:Sans"
         id="path4567"
         d="m 23.09375,26.03125 c -0.651636,-0.0013 -1.287945,0.03541 -1.90625,0.09375 -1.648813,0.155569 -3.179774,0.502136 -4.5625,0.96875 -4.148177,1.399841 -7.0365398,3.819286 -8.21875,4.9375 C 8.3149071,31.909793 8.2198231,31.780145 8.1875,31.625 L 7.53125,33.34375 9.125,32.46875 C 9.0087186,32.456085 8.9150914,32.421027 8.8125,32.375 c 1.1617124,-1.090926 3.940174,-3.42177 7.96875,-4.78125 5.258033,-1.774372 12.590452,-1.897559 21.125,4.625 -0.106576,0.08095 -0.240461,0.120145 -0.375,0.15625 l 1.03125,0.34375 0.71875,0.25 L 38.875,32.3125 38.3125,31.40625 c -0.0074,0.142159 -0.03673,0.282593 -0.09375,0.40625 -5.608174,-4.29034 -10.733516,-5.772374 -15.125,-5.78125 z" />
    </g>
  </g>
</svg>
