<?xml version="1.0" encoding="UTF-8" standalone="no"?>
<!-- Created with Inkscape (http://www.inkscape.org/) -->

<svg
   xmlns:dc="http://purl.org/dc/elements/1.1/"
   xmlns:cc="http://creativecommons.org/ns#"
   xmlns:rdf="http://www.w3.org/1999/02/22-rdf-syntax-ns#"
   xmlns:svg="http://www.w3.org/2000/svg"
   xmlns="http://www.w3.org/2000/svg"
   xmlns:sodipodi="http://sodipodi.sourceforge.net/DTD/sodipodi-0.dtd"
   xmlns:inkscape="http://www.inkscape.org/namespaces/inkscape"
   width="48px"
   height="48px"
   id="svg28083"
   version="1.1"
   inkscape:version="0.48.4 r9943 custom"
   sodipodi:docname="travailleur-chantier.svg">
  <defs
     id="defs28085">
    <clipPath
       clipPathUnits="userSpaceOnUse"
       id="clipPath4901">
      <path
         inkscape:connector-curvature="0"
         d="m 315.748,1648.19 0.773,0 0,-0.63 -0.773,0 0,0.63 z"
         id="path4903" />
    </clipPath>
    <clipPath
       clipPathUnits="userSpaceOnUse"
       id="clipPath4905">
      <path
         inkscape:connector-curvature="0"
         d="m 315.759,1648.18 0.762,0 0,-0.62 -0.762,0 0,0.62 z"
         id="path4907" />
    </clipPath>
    <clipPath
       clipPathUnits="userSpaceOnUse"
       id="clipPath4909">
      <path
         inkscape:connector-curvature="0"
         d="m 315.748,1648.19 0.011,0 0,-0.01 -0.011,0 0,0.01 z"
         id="path4911" />
    </clipPath>
    <clipPath
       clipPathUnits="userSpaceOnUse"
       id="clipPath4857">
      <path
         inkscape:connector-curvature="0"
         d="m 327.146,1644.07 0.45,0 0,-0.02 -0.45,0 0,0.02 z"
         id="path4859" />
    </clipPath>
    <clipPath
       clipPathUnits="userSpaceOnUse"
       id="clipPath4861">
      <path
         inkscape:connector-curvature="0"
         d="m 327.146,1644.07 0.446,0 0,-0.02 -0.446,0 0,0.02 z"
         id="path4863" />
    </clipPath>
    <clipPath
       clipPathUnits="userSpaceOnUse"
       id="clipPath4865">
      <path
         inkscape:connector-curvature="0"
         d="m 327.592,1644.05 0.004,0 0,0 -0.004,0 z"
         id="path4867" />
    </clipPath>
  </defs>
  <sodipodi:namedview
     id="base"
     pagecolor="#ffffff"
     bordercolor="#666666"
     borderopacity="1.0"
     inkscape:pageopacity="0.0"
     inkscape:pageshadow="2"
     inkscape:zoom="7"
     inkscape:cx="26.60379"
     inkscape:cy="15.274454"
     inkscape:current-layer="layer1"
     showgrid="true"
     inkscape:grid-bbox="true"
     inkscape:document-units="px"
     inkscape:window-width="651"
     inkscape:window-height="653"
     inkscape:window-x="1333"
     inkscape:window-y="273"
     inkscape:window-maximized="0" />
  <metadata
     id="metadata28088">
    <rdf:RDF>
      <cc:Work
         rdf:about="">
        <dc:format>image/svg+xml</dc:format>
        <dc:type
           rdf:resource="http://purl.org/dc/dcmitype/StillImage" />
        <dc:title />
      </cc:Work>
    </rdf:RDF>
  </metadata>
  <g
     id="layer1"
     inkscape:label="Layer 1"
     inkscape:groupmode="layer">
    <g
       id="g5191">
      <g
         id="g15331"
         transform="matrix(1.25,0,0,-1.25,29.033619,8.0700945)">
        <path
           d="m 0,0 c -0.021,2.782 -1.516,3.541 -3.061,3.541 -1.546,0 -2.537,-1.997 -2.537,-3.541 0,-1.547 1.252,-2.801 2.799,-2.801 1.545,0 2.811,1.254 2.799,2.801"
           style="fill:#cfcccd;fill-opacity:1;fill-rule:nonzero;stroke:none"
           id="path15333"
           inkscape:connector-curvature="0" />
      </g>
      <g
         id="g15335"
         transform="matrix(1.25,0,0,-1.25,16.125919,24.819394)">
        <path
           d="m 0,0 c 0,0 -0.832,-1.089 -0.375,-1.772 0.457,-0.686 1.451,0 1.451,0 L 5.213,3.977 5.74,-0.025 c 0,0 -2.914,-2.938 -3.369,-3.28 -0.457,-0.343 -1.949,-7.624 -1.949,-7.624 0,0 -0.379,-1.496 0.601,-1.803 1.315,-0.418 1.706,0.512 1.706,0.512 l 2.25,6.65 3.597,3.28 5.77,-9.517 c 0,0 0.824,-1.605 2.037,-0.901 1.049,0.609 0.301,2 0.301,2 l -4.645,10.225 0.145,6.469 2.57,0.577 c 0,0 0.094,-1.732 0.26,-3.326 0,0 0.314,-0.813 1.189,-0.749 0.748,0.051 0.873,0.372 0.938,0.873 0,0 0.396,4.772 -0.745,5.342 -1.142,0.571 -8.24,0.982 -8.24,0.982 0,0 -1.974,0.311 -3.103,-1.355 C 3.924,6.664 0,0 0,0"
           style="fill:#cfcccd;fill-opacity:1;fill-rule:nonzero;stroke:none"
           id="path15337"
           inkscape:connector-curvature="0" />
      </g>
      <g
         id="g15339"
         transform="matrix(1.25,0,0,-1.25,20.100519,9.1040945)">
        <path
           d="M 0,0 5.51,1.52 4.844,2.564 C 4.844,2.564 -0.949,0.759 0,0"
           style="fill:#cfcccd;fill-opacity:1;fill-rule:nonzero;stroke:none"
           id="path15341"
           inkscape:connector-curvature="0" />
      </g>
      <g
         id="g15343"
         transform="matrix(1.25,0,0,-1.25,8.0790187,27.351194)">
        <path
           d="M 0,0 C 0,0 1.971,0.681 2.9,1.002 3.83,1.324 5.371,-0.123 5.371,-0.123 L 22.906,5.212 23.143,4.536 5.604,-0.799 5.613,-0.827 c 0,0 -0.318,-2.085 -1.25,-2.407 -0.929,-0.323 -2.896,-1 -2.896,-1 L 0,0 z"
           style="fill:#cfcccd;fill-opacity:1;fill-rule:nonzero;stroke:none"
           id="path15345"
           inkscape:connector-curvature="0" />
      </g>
    </g>
  </g>
</svg>
